ISO-10303-21;
HEADER;
FILE_DESCRIPTION(('FreeCAD Model'),'2;1');
FILE_NAME('Open CASCADE Shape Model','2022-04-18T23:20:07',(
    'kicad StepUp'),('ksu MCAD'),'Open CASCADE STEP processor 7.5',
  'FreeCAD','Unknown');
FILE_SCHEMA(('AUTOMOTIVE_DESIGN { 1 0 10303 214 1 1 1 1 }'));
ENDSEC;
DATA;
#1 = APPLICATION_PROTOCOL_DEFINITION('international standard',
  'automotive_design',2000,#2);
#2 = APPLICATION_CONTEXT(
  'core data for automotive mechanical design processes');
#3 = SHAPE_DEFINITION_REPRESENTATION(#4,#10);
#4 = PRODUCT_DEFINITION_SHAPE('','',#5);
#5 = PRODUCT_DEFINITION('design','',#6,#9);
#6 = PRODUCT_DEFINITION_FORMATION('','',#7);
#7 = PRODUCT('LinkGroup','LinkGroup','',(#8));
#8 = PRODUCT_CONTEXT('',#2,'mechanical');
#9 = PRODUCT_DEFINITION_CONTEXT('part definition',#2,'design');
#10 = SHAPE_REPRESENTATION('',(#11,#15,#19,#23,#27,#31,#35,#39),#43);
#11 = AXIS2_PLACEMENT_3D('',#12,#13,#14);
#12 = CARTESIAN_POINT('',(0.,0.,0.));
#13 = DIRECTION('',(0.,0.,1.));
#14 = DIRECTION('',(1.,0.,-0.));
#15 = AXIS2_PLACEMENT_3D('',#16,#17,#18);
#16 = CARTESIAN_POINT('',(-25.,0.,0.));
#17 = DIRECTION('',(0.,0.,1.));
#18 = DIRECTION('',(1.,0.,0.));
#19 = AXIS2_PLACEMENT_3D('',#20,#21,#22);
#20 = CARTESIAN_POINT('',(25.,0.,0.));
#21 = DIRECTION('',(0.,0.,1.));
#22 = DIRECTION('',(1.,0.,0.));
#23 = AXIS2_PLACEMENT_3D('',#24,#25,#26);
#24 = CARTESIAN_POINT('',(0.,10.,0.));
#25 = DIRECTION('',(0.,0.,1.));
#26 = DIRECTION('',(1.,0.,0.));
#27 = AXIS2_PLACEMENT_3D('',#28,#29,#30);
#28 = CARTESIAN_POINT('',(-29.,8.,38.5));
#29 = DIRECTION('',(0.,0.,1.));
#30 = DIRECTION('',(1.,0.,0.));
#31 = AXIS2_PLACEMENT_3D('',#32,#33,#34);
#32 = CARTESIAN_POINT('',(29.,8.,38.5));
#33 = DIRECTION('',(0.,0.,1.));
#34 = DIRECTION('',(1.,0.,0.));
#35 = AXIS2_PLACEMENT_3D('',#36,#37,#38);
#36 = CARTESIAN_POINT('',(-29.,8.,15.5));
#37 = DIRECTION('',(0.,0.,1.));
#38 = DIRECTION('',(1.,0.,0.));
#39 = AXIS2_PLACEMENT_3D('',#40,#41,#42);
#40 = CARTESIAN_POINT('',(29.,8.,15.5));
#41 = DIRECTION('',(0.,0.,1.));
#42 = DIRECTION('',(1.,0.,0.));
#43 = ( GEOMETRIC_REPRESENTATION_CONTEXT(3) 
GLOBAL_UNCERTAINTY_ASSIGNED_CONTEXT((#47)) GLOBAL_UNIT_ASSIGNED_CONTEXT(
(#44,#45,#46)) REPRESENTATION_CONTEXT('Context #1',
  '3D Context with UNIT and UNCERTAINTY') );
#44 = ( LENGTH_UNIT() NAMED_UNIT(*) SI_UNIT(.MILLI.,.METRE.) );
#45 = ( NAMED_UNIT(*) PLANE_ANGLE_UNIT() SI_UNIT($,.RADIAN.) );
#46 = ( NAMED_UNIT(*) SI_UNIT($,.STERADIAN.) SOLID_ANGLE_UNIT() );
#47 = UNCERTAINTY_MEASURE_WITH_UNIT(LENGTH_MEASURE(1.E-07),#44,
  'distance_accuracy_value','confusion accuracy');
#48 = PRODUCT_RELATED_PRODUCT_CATEGORY('part',$,(#7));
#49 = ADVANCED_BREP_SHAPE_REPRESENTATION('',(#11,#50),#284);
#50 = MANIFOLD_SOLID_BREP('',#51);
#51 = CLOSED_SHELL('',(#52,#92,#123,#154,#182,#210,#222,#247,#272));
#52 = ADVANCED_FACE('',(#53),#87,.F.);
#53 = FACE_BOUND('',#54,.F.);
#54 = EDGE_LOOP('',(#55,#65,#73,#81));
#55 = ORIENTED_EDGE('',*,*,#56,.T.);
#56 = EDGE_CURVE('',#57,#59,#61,.T.);
#57 = VERTEX_POINT('',#58);
#58 = CARTESIAN_POINT('',(-7.5,-10.,0.));
#59 = VERTEX_POINT('',#60);
#60 = CARTESIAN_POINT('',(-7.5,-10.,10.));
#61 = LINE('',#62,#63);
#62 = CARTESIAN_POINT('',(-7.5,-10.,0.));
#63 = VECTOR('',#64,1.);
#64 = DIRECTION('',(0.,0.,1.));
#65 = ORIENTED_EDGE('',*,*,#66,.T.);
#66 = EDGE_CURVE('',#59,#67,#69,.T.);
#67 = VERTEX_POINT('',#68);
#68 = CARTESIAN_POINT('',(7.5,-10.,10.));
#69 = LINE('',#70,#71);
#70 = CARTESIAN_POINT('',(-7.5,-10.,10.));
#71 = VECTOR('',#72,1.);
#72 = DIRECTION('',(1.,0.,0.));
#73 = ORIENTED_EDGE('',*,*,#74,.F.);
#74 = EDGE_CURVE('',#75,#67,#77,.T.);
#75 = VERTEX_POINT('',#76);
#76 = CARTESIAN_POINT('',(7.5,-10.,0.));
#77 = LINE('',#78,#79);
#78 = CARTESIAN_POINT('',(7.5,-10.,0.));
#79 = VECTOR('',#80,1.);
#80 = DIRECTION('',(0.,0.,1.));
#81 = ORIENTED_EDGE('',*,*,#82,.F.);
#82 = EDGE_CURVE('',#57,#75,#83,.T.);
#83 = LINE('',#84,#85);
#84 = CARTESIAN_POINT('',(-7.5,-10.,0.));
#85 = VECTOR('',#86,1.);
#86 = DIRECTION('',(1.,0.,0.));
#87 = PLANE('',#88);
#88 = AXIS2_PLACEMENT_3D('',#89,#90,#91);
#89 = CARTESIAN_POINT('',(-7.5,-10.,0.));
#90 = DIRECTION('',(0.,1.,0.));
#91 = DIRECTION('',(1.,0.,0.));
#92 = ADVANCED_FACE('',(#93),#118,.F.);
#93 = FACE_BOUND('',#94,.F.);
#94 = EDGE_LOOP('',(#95,#105,#111,#112));
#95 = ORIENTED_EDGE('',*,*,#96,.T.);
#96 = EDGE_CURVE('',#97,#99,#101,.T.);
#97 = VERTEX_POINT('',#98);
#98 = CARTESIAN_POINT('',(-7.5,10.,0.));
#99 = VERTEX_POINT('',#100);
#100 = CARTESIAN_POINT('',(-7.5,10.,10.));
#101 = LINE('',#102,#103);
#102 = CARTESIAN_POINT('',(-7.5,10.,0.));
#103 = VECTOR('',#104,1.);
#104 = DIRECTION('',(0.,0.,1.));
#105 = ORIENTED_EDGE('',*,*,#106,.T.);
#106 = EDGE_CURVE('',#99,#59,#107,.T.);
#107 = LINE('',#108,#109);
#108 = CARTESIAN_POINT('',(-7.5,10.,10.));
#109 = VECTOR('',#110,1.);
#110 = DIRECTION('',(0.,-1.,0.));
#111 = ORIENTED_EDGE('',*,*,#56,.F.);
#112 = ORIENTED_EDGE('',*,*,#113,.F.);
#113 = EDGE_CURVE('',#97,#57,#114,.T.);
#114 = LINE('',#115,#116);
#115 = CARTESIAN_POINT('',(-7.5,10.,0.));
#116 = VECTOR('',#117,1.);
#117 = DIRECTION('',(0.,-1.,0.));
#118 = PLANE('',#119);
#119 = AXIS2_PLACEMENT_3D('',#120,#121,#122);
#120 = CARTESIAN_POINT('',(-7.5,10.,0.));
#121 = DIRECTION('',(1.,0.,0.));
#122 = DIRECTION('',(0.,-1.,0.));
#123 = ADVANCED_FACE('',(#124),#149,.F.);
#124 = FACE_BOUND('',#125,.F.);
#125 = EDGE_LOOP('',(#126,#127,#135,#143));
#126 = ORIENTED_EDGE('',*,*,#74,.T.);
#127 = ORIENTED_EDGE('',*,*,#128,.T.);
#128 = EDGE_CURVE('',#67,#129,#131,.T.);
#129 = VERTEX_POINT('',#130);
#130 = CARTESIAN_POINT('',(7.5,10.,10.));
#131 = LINE('',#132,#133);
#132 = CARTESIAN_POINT('',(7.5,-10.,10.));
#133 = VECTOR('',#134,1.);
#134 = DIRECTION('',(0.,1.,0.));
#135 = ORIENTED_EDGE('',*,*,#136,.F.);
#136 = EDGE_CURVE('',#137,#129,#139,.T.);
#137 = VERTEX_POINT('',#138);
#138 = CARTESIAN_POINT('',(7.5,10.,0.));
#139 = LINE('',#140,#141);
#140 = CARTESIAN_POINT('',(7.5,10.,0.));
#141 = VECTOR('',#142,1.);
#142 = DIRECTION('',(0.,0.,1.));
#143 = ORIENTED_EDGE('',*,*,#144,.F.);
#144 = EDGE_CURVE('',#75,#137,#145,.T.);
#145 = LINE('',#146,#147);
#146 = CARTESIAN_POINT('',(7.5,-10.,0.));
#147 = VECTOR('',#148,1.);
#148 = DIRECTION('',(0.,1.,0.));
#149 = PLANE('',#150);
#150 = AXIS2_PLACEMENT_3D('',#151,#152,#153);
#151 = CARTESIAN_POINT('',(7.5,-10.,0.));
#152 = DIRECTION('',(-1.,0.,0.));
#153 = DIRECTION('',(0.,1.,0.));
#154 = ADVANCED_FACE('',(#155,#166),#177,.F.);
#155 = FACE_BOUND('',#156,.F.);
#156 = EDGE_LOOP('',(#157,#158,#159,#165));
#157 = ORIENTED_EDGE('',*,*,#82,.T.);
#158 = ORIENTED_EDGE('',*,*,#144,.T.);
#159 = ORIENTED_EDGE('',*,*,#160,.T.);
#160 = EDGE_CURVE('',#137,#97,#161,.T.);
#161 = LINE('',#162,#163);
#162 = CARTESIAN_POINT('',(7.5,10.,0.));
#163 = VECTOR('',#164,1.);
#164 = DIRECTION('',(-1.,0.,0.));
#165 = ORIENTED_EDGE('',*,*,#113,.T.);
#166 = FACE_BOUND('',#167,.F.);
#167 = EDGE_LOOP('',(#168));
#168 = ORIENTED_EDGE('',*,*,#169,.F.);
#169 = EDGE_CURVE('',#170,#170,#172,.T.);
#170 = VERTEX_POINT('',#171);
#171 = CARTESIAN_POINT('',(2.25,0.,0.));
#172 = CIRCLE('',#173,2.25);
#173 = AXIS2_PLACEMENT_3D('',#174,#175,#176);
#174 = CARTESIAN_POINT('',(0.,0.,0.));
#175 = DIRECTION('',(0.,0.,1.));
#176 = DIRECTION('',(1.,0.,0.));
#177 = PLANE('',#178);
#178 = AXIS2_PLACEMENT_3D('',#179,#180,#181);
#179 = CARTESIAN_POINT('',(0.,0.,0.));
#180 = DIRECTION('',(0.,0.,1.));
#181 = DIRECTION('',(1.,0.,0.));
#182 = ADVANCED_FACE('',(#183,#194),#205,.T.);
#183 = FACE_BOUND('',#184,.T.);
#184 = EDGE_LOOP('',(#185,#186,#187,#193));
#185 = ORIENTED_EDGE('',*,*,#66,.T.);
#186 = ORIENTED_EDGE('',*,*,#128,.T.);
#187 = ORIENTED_EDGE('',*,*,#188,.T.);
#188 = EDGE_CURVE('',#129,#99,#189,.T.);
#189 = LINE('',#190,#191);
#190 = CARTESIAN_POINT('',(7.5,10.,10.));
#191 = VECTOR('',#192,1.);
#192 = DIRECTION('',(-1.,0.,0.));
#193 = ORIENTED_EDGE('',*,*,#106,.T.);
#194 = FACE_BOUND('',#195,.T.);
#195 = EDGE_LOOP('',(#196));
#196 = ORIENTED_EDGE('',*,*,#197,.F.);
#197 = EDGE_CURVE('',#198,#198,#200,.T.);
#198 = VERTEX_POINT('',#199);
#199 = CARTESIAN_POINT('',(5.,0.,10.));
#200 = CIRCLE('',#201,5.);
#201 = AXIS2_PLACEMENT_3D('',#202,#203,#204);
#202 = CARTESIAN_POINT('',(0.,0.,10.));
#203 = DIRECTION('',(0.,0.,1.));
#204 = DIRECTION('',(1.,0.,0.));
#205 = PLANE('',#206);
#206 = AXIS2_PLACEMENT_3D('',#207,#208,#209);
#207 = CARTESIAN_POINT('',(0.,0.,10.));
#208 = DIRECTION('',(0.,0.,1.));
#209 = DIRECTION('',(1.,0.,0.));
#210 = ADVANCED_FACE('',(#211),#217,.F.);
#211 = FACE_BOUND('',#212,.F.);
#212 = EDGE_LOOP('',(#213,#214,#215,#216));
#213 = ORIENTED_EDGE('',*,*,#136,.T.);
#214 = ORIENTED_EDGE('',*,*,#188,.T.);
#215 = ORIENTED_EDGE('',*,*,#96,.F.);
#216 = ORIENTED_EDGE('',*,*,#160,.F.);
#217 = PLANE('',#218);
#218 = AXIS2_PLACEMENT_3D('',#219,#220,#221);
#219 = CARTESIAN_POINT('',(7.5,10.,0.));
#220 = DIRECTION('',(0.,-1.,0.));
#221 = DIRECTION('',(-1.,0.,0.));
#222 = ADVANCED_FACE('',(#223),#242,.F.);
#223 = FACE_BOUND('',#224,.F.);
#224 = EDGE_LOOP('',(#225,#234,#240,#241));
#225 = ORIENTED_EDGE('',*,*,#226,.F.);
#226 = EDGE_CURVE('',#227,#227,#229,.T.);
#227 = VERTEX_POINT('',#228);
#228 = CARTESIAN_POINT('',(2.25,0.,2.));
#229 = CIRCLE('',#230,2.25);
#230 = AXIS2_PLACEMENT_3D('',#231,#232,#233);
#231 = CARTESIAN_POINT('',(0.,0.,2.));
#232 = DIRECTION('',(0.,0.,1.));
#233 = DIRECTION('',(1.,0.,0.));
#234 = ORIENTED_EDGE('',*,*,#235,.T.);
#235 = EDGE_CURVE('',#227,#170,#236,.T.);
#236 = LINE('',#237,#238);
#237 = CARTESIAN_POINT('',(2.25,0.,10.));
#238 = VECTOR('',#239,1.);
#239 = DIRECTION('',(-0.,-0.,-1.));
#240 = ORIENTED_EDGE('',*,*,#169,.T.);
#241 = ORIENTED_EDGE('',*,*,#235,.F.);
#242 = CYLINDRICAL_SURFACE('',#243,2.25);
#243 = AXIS2_PLACEMENT_3D('',#244,#245,#246);
#244 = CARTESIAN_POINT('',(0.,0.,10.));
#245 = DIRECTION('',(0.,0.,1.));
#246 = DIRECTION('',(1.,0.,0.));
#247 = ADVANCED_FACE('',(#248),#267,.F.);
#248 = FACE_BOUND('',#249,.F.);
#249 = EDGE_LOOP('',(#250,#258,#265,#266));
#250 = ORIENTED_EDGE('',*,*,#251,.T.);
#251 = EDGE_CURVE('',#198,#252,#254,.T.);
#252 = VERTEX_POINT('',#253);
#253 = CARTESIAN_POINT('',(5.,0.,2.));
#254 = LINE('',#255,#256);
#255 = CARTESIAN_POINT('',(5.,0.,10.));
#256 = VECTOR('',#257,1.);
#257 = DIRECTION('',(-0.,-0.,-1.));
#258 = ORIENTED_EDGE('',*,*,#259,.T.);
#259 = EDGE_CURVE('',#252,#252,#260,.T.);
#260 = CIRCLE('',#261,5.);
#261 = AXIS2_PLACEMENT_3D('',#262,#263,#264);
#262 = CARTESIAN_POINT('',(0.,0.,2.));
#263 = DIRECTION('',(0.,0.,1.));
#264 = DIRECTION('',(1.,0.,0.));
#265 = ORIENTED_EDGE('',*,*,#251,.F.);
#266 = ORIENTED_EDGE('',*,*,#197,.F.);
#267 = CYLINDRICAL_SURFACE('',#268,5.);
#268 = AXIS2_PLACEMENT_3D('',#269,#270,#271);
#269 = CARTESIAN_POINT('',(0.,0.,10.));
#270 = DIRECTION('',(0.,0.,1.));
#271 = DIRECTION('',(1.,0.,0.));
#272 = ADVANCED_FACE('',(#273,#276),#279,.T.);
#273 = FACE_BOUND('',#274,.T.);
#274 = EDGE_LOOP('',(#275));
#275 = ORIENTED_EDGE('',*,*,#259,.T.);
#276 = FACE_BOUND('',#277,.T.);
#277 = EDGE_LOOP('',(#278));
#278 = ORIENTED_EDGE('',*,*,#226,.F.);
#279 = PLANE('',#280);
#280 = AXIS2_PLACEMENT_3D('',#281,#282,#283);
#281 = CARTESIAN_POINT('',(-3.076740298214E-16,4.07232813689E-16,2.));
#282 = DIRECTION('',(0.,0.,1.));
#283 = DIRECTION('',(1.,0.,0.));
#284 = ( GEOMETRIC_REPRESENTATION_CONTEXT(3) 
GLOBAL_UNCERTAINTY_ASSIGNED_CONTEXT((#288)) GLOBAL_UNIT_ASSIGNED_CONTEXT
((#285,#286,#287)) REPRESENTATION_CONTEXT('Context #1',
  '3D Context with UNIT and UNCERTAINTY') );
#285 = ( LENGTH_UNIT() NAMED_UNIT(*) SI_UNIT(.MILLI.,.METRE.) );
#286 = ( NAMED_UNIT(*) PLANE_ANGLE_UNIT() SI_UNIT($,.RADIAN.) );
#287 = ( NAMED_UNIT(*) SI_UNIT($,.STERADIAN.) SOLID_ANGLE_UNIT() );
#288 = UNCERTAINTY_MEASURE_WITH_UNIT(LENGTH_MEASURE(1.E-07),#285,
  'distance_accuracy_value','confusion accuracy');
#289 = SHAPE_DEFINITION_REPRESENTATION(#290,#49);
#290 = PRODUCT_DEFINITION_SHAPE('','',#291);
#291 = PRODUCT_DEFINITION('design','',#292,#295);
#292 = PRODUCT_DEFINITION_FORMATION('','',#293);
#293 = PRODUCT('Body','Body','',(#294));
#294 = PRODUCT_CONTEXT('',#2,'mechanical');
#295 = PRODUCT_DEFINITION_CONTEXT('part definition',#2,'design');
#296 = CONTEXT_DEPENDENT_SHAPE_REPRESENTATION(#297,#299);
#297 = ( REPRESENTATION_RELATIONSHIP('','',#49,#10) 
REPRESENTATION_RELATIONSHIP_WITH_TRANSFORMATION(#298) 
SHAPE_REPRESENTATION_RELATIONSHIP() );
#298 = ITEM_DEFINED_TRANSFORMATION('','',#11,#15);
#299 = PRODUCT_DEFINITION_SHAPE('Placement','Placement of an item',#300
  );
#300 = NEXT_ASSEMBLY_USAGE_OCCURRENCE('1','Body','',#5,#291,$);
#301 = PRODUCT_RELATED_PRODUCT_CATEGORY('part',$,(#293));
#302 = ADVANCED_BREP_SHAPE_REPRESENTATION('',(#11,#303),#537);
#303 = MANIFOLD_SOLID_BREP('',#304);
#304 = CLOSED_SHELL('',(#305,#345,#376,#407,#435,#463,#475,#500,#525));
#305 = ADVANCED_FACE('',(#306),#340,.F.);
#306 = FACE_BOUND('',#307,.F.);
#307 = EDGE_LOOP('',(#308,#318,#326,#334));
#308 = ORIENTED_EDGE('',*,*,#309,.T.);
#309 = EDGE_CURVE('',#310,#312,#314,.T.);
#310 = VERTEX_POINT('',#311);
#311 = CARTESIAN_POINT('',(-7.5,-10.,0.));
#312 = VERTEX_POINT('',#313);
#313 = CARTESIAN_POINT('',(-7.5,-10.,10.));
#314 = LINE('',#315,#316);
#315 = CARTESIAN_POINT('',(-7.5,-10.,0.));
#316 = VECTOR('',#317,1.);
#317 = DIRECTION('',(0.,0.,1.));
#318 = ORIENTED_EDGE('',*,*,#319,.T.);
#319 = EDGE_CURVE('',#312,#320,#322,.T.);
#320 = VERTEX_POINT('',#321);
#321 = CARTESIAN_POINT('',(7.5,-10.,10.));
#322 = LINE('',#323,#324);
#323 = CARTESIAN_POINT('',(-7.5,-10.,10.));
#324 = VECTOR('',#325,1.);
#325 = DIRECTION('',(1.,0.,0.));
#326 = ORIENTED_EDGE('',*,*,#327,.F.);
#327 = EDGE_CURVE('',#328,#320,#330,.T.);
#328 = VERTEX_POINT('',#329);
#329 = CARTESIAN_POINT('',(7.5,-10.,0.));
#330 = LINE('',#331,#332);
#331 = CARTESIAN_POINT('',(7.5,-10.,0.));
#332 = VECTOR('',#333,1.);
#333 = DIRECTION('',(0.,0.,1.));
#334 = ORIENTED_EDGE('',*,*,#335,.F.);
#335 = EDGE_CURVE('',#310,#328,#336,.T.);
#336 = LINE('',#337,#338);
#337 = CARTESIAN_POINT('',(-7.5,-10.,0.));
#338 = VECTOR('',#339,1.);
#339 = DIRECTION('',(1.,0.,0.));
#340 = PLANE('',#341);
#341 = AXIS2_PLACEMENT_3D('',#342,#343,#344);
#342 = CARTESIAN_POINT('',(-7.5,-10.,0.));
#343 = DIRECTION('',(0.,1.,0.));
#344 = DIRECTION('',(1.,0.,0.));
#345 = ADVANCED_FACE('',(#346),#371,.F.);
#346 = FACE_BOUND('',#347,.F.);
#347 = EDGE_LOOP('',(#348,#358,#364,#365));
#348 = ORIENTED_EDGE('',*,*,#349,.T.);
#349 = EDGE_CURVE('',#350,#352,#354,.T.);
#350 = VERTEX_POINT('',#351);
#351 = CARTESIAN_POINT('',(-7.5,10.,0.));
#352 = VERTEX_POINT('',#353);
#353 = CARTESIAN_POINT('',(-7.5,10.,10.));
#354 = LINE('',#355,#356);
#355 = CARTESIAN_POINT('',(-7.5,10.,0.));
#356 = VECTOR('',#357,1.);
#357 = DIRECTION('',(0.,0.,1.));
#358 = ORIENTED_EDGE('',*,*,#359,.T.);
#359 = EDGE_CURVE('',#352,#312,#360,.T.);
#360 = LINE('',#361,#362);
#361 = CARTESIAN_POINT('',(-7.5,10.,10.));
#362 = VECTOR('',#363,1.);
#363 = DIRECTION('',(0.,-1.,0.));
#364 = ORIENTED_EDGE('',*,*,#309,.F.);
#365 = ORIENTED_EDGE('',*,*,#366,.F.);
#366 = EDGE_CURVE('',#350,#310,#367,.T.);
#367 = LINE('',#368,#369);
#368 = CARTESIAN_POINT('',(-7.5,10.,0.));
#369 = VECTOR('',#370,1.);
#370 = DIRECTION('',(0.,-1.,0.));
#371 = PLANE('',#372);
#372 = AXIS2_PLACEMENT_3D('',#373,#374,#375);
#373 = CARTESIAN_POINT('',(-7.5,10.,0.));
#374 = DIRECTION('',(1.,0.,0.));
#375 = DIRECTION('',(0.,-1.,0.));
#376 = ADVANCED_FACE('',(#377),#402,.F.);
#377 = FACE_BOUND('',#378,.F.);
#378 = EDGE_LOOP('',(#379,#380,#388,#396));
#379 = ORIENTED_EDGE('',*,*,#327,.T.);
#380 = ORIENTED_EDGE('',*,*,#381,.T.);
#381 = EDGE_CURVE('',#320,#382,#384,.T.);
#382 = VERTEX_POINT('',#383);
#383 = CARTESIAN_POINT('',(7.5,10.,10.));
#384 = LINE('',#385,#386);
#385 = CARTESIAN_POINT('',(7.5,-10.,10.));
#386 = VECTOR('',#387,1.);
#387 = DIRECTION('',(0.,1.,0.));
#388 = ORIENTED_EDGE('',*,*,#389,.F.);
#389 = EDGE_CURVE('',#390,#382,#392,.T.);
#390 = VERTEX_POINT('',#391);
#391 = CARTESIAN_POINT('',(7.5,10.,0.));
#392 = LINE('',#393,#394);
#393 = CARTESIAN_POINT('',(7.5,10.,0.));
#394 = VECTOR('',#395,1.);
#395 = DIRECTION('',(0.,0.,1.));
#396 = ORIENTED_EDGE('',*,*,#397,.F.);
#397 = EDGE_CURVE('',#328,#390,#398,.T.);
#398 = LINE('',#399,#400);
#399 = CARTESIAN_POINT('',(7.5,-10.,0.));
#400 = VECTOR('',#401,1.);
#401 = DIRECTION('',(0.,1.,0.));
#402 = PLANE('',#403);
#403 = AXIS2_PLACEMENT_3D('',#404,#405,#406);
#404 = CARTESIAN_POINT('',(7.5,-10.,0.));
#405 = DIRECTION('',(-1.,0.,0.));
#406 = DIRECTION('',(0.,1.,0.));
#407 = ADVANCED_FACE('',(#408,#419),#430,.F.);
#408 = FACE_BOUND('',#409,.F.);
#409 = EDGE_LOOP('',(#410,#411,#412,#418));
#410 = ORIENTED_EDGE('',*,*,#335,.T.);
#411 = ORIENTED_EDGE('',*,*,#397,.T.);
#412 = ORIENTED_EDGE('',*,*,#413,.T.);
#413 = EDGE_CURVE('',#390,#350,#414,.T.);
#414 = LINE('',#415,#416);
#415 = CARTESIAN_POINT('',(7.5,10.,0.));
#416 = VECTOR('',#417,1.);
#417 = DIRECTION('',(-1.,0.,0.));
#418 = ORIENTED_EDGE('',*,*,#366,.T.);
#419 = FACE_BOUND('',#420,.F.);
#420 = EDGE_LOOP('',(#421));
#421 = ORIENTED_EDGE('',*,*,#422,.F.);
#422 = EDGE_CURVE('',#423,#423,#425,.T.);
#423 = VERTEX_POINT('',#424);
#424 = CARTESIAN_POINT('',(2.25,0.,0.));
#425 = CIRCLE('',#426,2.25);
#426 = AXIS2_PLACEMENT_3D('',#427,#428,#429);
#427 = CARTESIAN_POINT('',(0.,0.,0.));
#428 = DIRECTION('',(0.,0.,1.));
#429 = DIRECTION('',(1.,0.,0.));
#430 = PLANE('',#431);
#431 = AXIS2_PLACEMENT_3D('',#432,#433,#434);
#432 = CARTESIAN_POINT('',(0.,0.,0.));
#433 = DIRECTION('',(0.,0.,1.));
#434 = DIRECTION('',(1.,0.,0.));
#435 = ADVANCED_FACE('',(#436,#447),#458,.T.);
#436 = FACE_BOUND('',#437,.T.);
#437 = EDGE_LOOP('',(#438,#439,#440,#446));
#438 = ORIENTED_EDGE('',*,*,#319,.T.);
#439 = ORIENTED_EDGE('',*,*,#381,.T.);
#440 = ORIENTED_EDGE('',*,*,#441,.T.);
#441 = EDGE_CURVE('',#382,#352,#442,.T.);
#442 = LINE('',#443,#444);
#443 = CARTESIAN_POINT('',(7.5,10.,10.));
#444 = VECTOR('',#445,1.);
#445 = DIRECTION('',(-1.,0.,0.));
#446 = ORIENTED_EDGE('',*,*,#359,.T.);
#447 = FACE_BOUND('',#448,.T.);
#448 = EDGE_LOOP('',(#449));
#449 = ORIENTED_EDGE('',*,*,#450,.F.);
#450 = EDGE_CURVE('',#451,#451,#453,.T.);
#451 = VERTEX_POINT('',#452);
#452 = CARTESIAN_POINT('',(5.,0.,10.));
#453 = CIRCLE('',#454,5.);
#454 = AXIS2_PLACEMENT_3D('',#455,#456,#457);
#455 = CARTESIAN_POINT('',(0.,0.,10.));
#456 = DIRECTION('',(0.,0.,1.));
#457 = DIRECTION('',(1.,0.,0.));
#458 = PLANE('',#459);
#459 = AXIS2_PLACEMENT_3D('',#460,#461,#462);
#460 = CARTESIAN_POINT('',(0.,0.,10.));
#461 = DIRECTION('',(0.,0.,1.));
#462 = DIRECTION('',(1.,0.,0.));
#463 = ADVANCED_FACE('',(#464),#470,.F.);
#464 = FACE_BOUND('',#465,.F.);
#465 = EDGE_LOOP('',(#466,#467,#468,#469));
#466 = ORIENTED_EDGE('',*,*,#389,.T.);
#467 = ORIENTED_EDGE('',*,*,#441,.T.);
#468 = ORIENTED_EDGE('',*,*,#349,.F.);
#469 = ORIENTED_EDGE('',*,*,#413,.F.);
#470 = PLANE('',#471);
#471 = AXIS2_PLACEMENT_3D('',#472,#473,#474);
#472 = CARTESIAN_POINT('',(7.5,10.,0.));
#473 = DIRECTION('',(0.,-1.,0.));
#474 = DIRECTION('',(-1.,0.,0.));
#475 = ADVANCED_FACE('',(#476),#495,.F.);
#476 = FACE_BOUND('',#477,.F.);
#477 = EDGE_LOOP('',(#478,#487,#493,#494));
#478 = ORIENTED_EDGE('',*,*,#479,.F.);
#479 = EDGE_CURVE('',#480,#480,#482,.T.);
#480 = VERTEX_POINT('',#481);
#481 = CARTESIAN_POINT('',(2.25,0.,2.));
#482 = CIRCLE('',#483,2.25);
#483 = AXIS2_PLACEMENT_3D('',#484,#485,#486);
#484 = CARTESIAN_POINT('',(0.,0.,2.));
#485 = DIRECTION('',(0.,0.,1.));
#486 = DIRECTION('',(1.,0.,-0.));
#487 = ORIENTED_EDGE('',*,*,#488,.T.);
#488 = EDGE_CURVE('',#480,#423,#489,.T.);
#489 = LINE('',#490,#491);
#490 = CARTESIAN_POINT('',(2.25,0.,10.));
#491 = VECTOR('',#492,1.);
#492 = DIRECTION('',(-0.,-0.,-1.));
#493 = ORIENTED_EDGE('',*,*,#422,.T.);
#494 = ORIENTED_EDGE('',*,*,#488,.F.);
#495 = CYLINDRICAL_SURFACE('',#496,2.25);
#496 = AXIS2_PLACEMENT_3D('',#497,#498,#499);
#497 = CARTESIAN_POINT('',(0.,0.,10.));
#498 = DIRECTION('',(0.,0.,1.));
#499 = DIRECTION('',(1.,0.,0.));
#500 = ADVANCED_FACE('',(#501),#520,.F.);
#501 = FACE_BOUND('',#502,.F.);
#502 = EDGE_LOOP('',(#503,#511,#518,#519));
#503 = ORIENTED_EDGE('',*,*,#504,.T.);
#504 = EDGE_CURVE('',#451,#505,#507,.T.);
#505 = VERTEX_POINT('',#506);
#506 = CARTESIAN_POINT('',(5.,0.,2.));
#507 = LINE('',#508,#509);
#508 = CARTESIAN_POINT('',(5.,0.,10.));
#509 = VECTOR('',#510,1.);
#510 = DIRECTION('',(-0.,-0.,-1.));
#511 = ORIENTED_EDGE('',*,*,#512,.T.);
#512 = EDGE_CURVE('',#505,#505,#513,.T.);
#513 = CIRCLE('',#514,5.);
#514 = AXIS2_PLACEMENT_3D('',#515,#516,#517);
#515 = CARTESIAN_POINT('',(0.,0.,2.));
#516 = DIRECTION('',(0.,0.,1.));
#517 = DIRECTION('',(1.,0.,0.));
#518 = ORIENTED_EDGE('',*,*,#504,.F.);
#519 = ORIENTED_EDGE('',*,*,#450,.F.);
#520 = CYLINDRICAL_SURFACE('',#521,5.);
#521 = AXIS2_PLACEMENT_3D('',#522,#523,#524);
#522 = CARTESIAN_POINT('',(0.,0.,10.));
#523 = DIRECTION('',(0.,0.,1.));
#524 = DIRECTION('',(1.,0.,-0.));
#525 = ADVANCED_FACE('',(#526,#529),#532,.T.);
#526 = FACE_BOUND('',#527,.T.);
#527 = EDGE_LOOP('',(#528));
#528 = ORIENTED_EDGE('',*,*,#512,.T.);
#529 = FACE_BOUND('',#530,.T.);
#530 = EDGE_LOOP('',(#531));
#531 = ORIENTED_EDGE('',*,*,#479,.F.);
#532 = PLANE('',#533);
#533 = AXIS2_PLACEMENT_3D('',#534,#535,#536);
#534 = CARTESIAN_POINT('',(-3.1E-16,4.1E-16,2.));
#535 = DIRECTION('',(0.,0.,1.));
#536 = DIRECTION('',(1.,0.,0.));
#537 = ( GEOMETRIC_REPRESENTATION_CONTEXT(3) 
GLOBAL_UNCERTAINTY_ASSIGNED_CONTEXT((#541)) GLOBAL_UNIT_ASSIGNED_CONTEXT
((#538,#539,#540)) REPRESENTATION_CONTEXT('Context #1',
  '3D Context with UNIT and UNCERTAINTY') );
#538 = ( LENGTH_UNIT() NAMED_UNIT(*) SI_UNIT(.MILLI.,.METRE.) );
#539 = ( NAMED_UNIT(*) PLANE_ANGLE_UNIT() SI_UNIT($,.RADIAN.) );
#540 = ( NAMED_UNIT(*) SI_UNIT($,.STERADIAN.) SOLID_ANGLE_UNIT() );
#541 = UNCERTAINTY_MEASURE_WITH_UNIT(LENGTH_MEASURE(1.E-07),#538,
  'distance_accuracy_value','confusion accuracy');
#542 = SHAPE_DEFINITION_REPRESENTATION(#543,#302);
#543 = PRODUCT_DEFINITION_SHAPE('','',#544);
#544 = PRODUCT_DEFINITION('design','',#545,#548);
#545 = PRODUCT_DEFINITION_FORMATION('','',#546);
#546 = PRODUCT('Body001','Body001','',(#547));
#547 = PRODUCT_CONTEXT('',#2,'mechanical');
#548 = PRODUCT_DEFINITION_CONTEXT('part definition',#2,'design');
#549 = CONTEXT_DEPENDENT_SHAPE_REPRESENTATION(#550,#552);
#550 = ( REPRESENTATION_RELATIONSHIP('','',#302,#10) 
REPRESENTATION_RELATIONSHIP_WITH_TRANSFORMATION(#551) 
SHAPE_REPRESENTATION_RELATIONSHIP() );
#551 = ITEM_DEFINED_TRANSFORMATION('','',#11,#19);
#552 = PRODUCT_DEFINITION_SHAPE('Placement','Placement of an item',#553
  );
#553 = NEXT_ASSEMBLY_USAGE_OCCURRENCE('2','Body001','',#5,#544,$);
#554 = PRODUCT_RELATED_PRODUCT_CATEGORY('part',$,(#546));
#555 = ADVANCED_BREP_SHAPE_REPRESENTATION('',(#11,#556),#998);
#556 = MANIFOLD_SOLID_BREP('',#557);
#557 = CLOSED_SHELL('',(#558,#598,#629,#660,#682,#722,#753,#784,#806,
    #839,#872,#905,#938,#968));
#558 = ADVANCED_FACE('',(#559),#593,.T.);
#559 = FACE_BOUND('',#560,.T.);
#560 = EDGE_LOOP('',(#561,#571,#579,#587));
#561 = ORIENTED_EDGE('',*,*,#562,.T.);
#562 = EDGE_CURVE('',#563,#565,#567,.T.);
#563 = VERTEX_POINT('',#564);
#564 = CARTESIAN_POINT('',(-32.5,2.797762022055E-14,42.));
#565 = VERTEX_POINT('',#566);
#566 = CARTESIAN_POINT('',(-32.5,-2.,42.));
#567 = LINE('',#568,#569);
#568 = CARTESIAN_POINT('',(-32.5,2.797762022055E-14,42.));
#569 = VECTOR('',#570,1.);
#570 = DIRECTION('',(0.,-1.,6.437626716043E-16));
#571 = ORIENTED_EDGE('',*,*,#572,.T.);
#572 = EDGE_CURVE('',#565,#573,#575,.T.);
#573 = VERTEX_POINT('',#574);
#574 = CARTESIAN_POINT('',(32.5,-2.,42.));
#575 = LINE('',#576,#577);
#576 = CARTESIAN_POINT('',(-32.5,-2.,42.));
#577 = VECTOR('',#578,1.);
#578 = DIRECTION('',(1.,0.,0.));
#579 = ORIENTED_EDGE('',*,*,#580,.F.);
#580 = EDGE_CURVE('',#581,#573,#583,.T.);
#581 = VERTEX_POINT('',#582);
#582 = CARTESIAN_POINT('',(32.5,2.797762022055E-14,42.));
#583 = LINE('',#584,#585);
#584 = CARTESIAN_POINT('',(32.5,2.797762022055E-14,42.));
#585 = VECTOR('',#586,1.);
#586 = DIRECTION('',(0.,-1.,6.437626716043E-16));
#587 = ORIENTED_EDGE('',*,*,#588,.F.);
#588 = EDGE_CURVE('',#563,#581,#589,.T.);
#589 = LINE('',#590,#591);
#590 = CARTESIAN_POINT('',(-32.5,2.797762022055E-14,42.));
#591 = VECTOR('',#592,1.);
#592 = DIRECTION('',(1.,0.,0.));
#593 = PLANE('',#594);
#594 = AXIS2_PLACEMENT_3D('',#595,#596,#597);
#595 = CARTESIAN_POINT('',(-32.5,2.797762022055E-14,42.));
#596 = DIRECTION('',(0.,6.437626716043E-16,1.));
#597 = DIRECTION('',(1.,0.,0.));
#598 = ADVANCED_FACE('',(#599),#624,.T.);
#599 = FACE_BOUND('',#600,.T.);
#600 = EDGE_LOOP('',(#601,#602,#610,#618));
#601 = ORIENTED_EDGE('',*,*,#580,.T.);
#602 = ORIENTED_EDGE('',*,*,#603,.T.);
#603 = EDGE_CURVE('',#573,#604,#606,.T.);
#604 = VERTEX_POINT('',#605);
#605 = CARTESIAN_POINT('',(32.5,-2.,10.));
#606 = LINE('',#607,#608);
#607 = CARTESIAN_POINT('',(32.5,-2.,42.));
#608 = VECTOR('',#609,1.);
#609 = DIRECTION('',(0.,-6.661338147751E-16,-1.));
#610 = ORIENTED_EDGE('',*,*,#611,.F.);
#611 = EDGE_CURVE('',#612,#604,#614,.T.);
#612 = VERTEX_POINT('',#613);
#613 = CARTESIAN_POINT('',(32.5,6.661338147751E-15,10.));
#614 = LINE('',#615,#616);
#615 = CARTESIAN_POINT('',(32.5,6.661338147751E-15,10.));
#616 = VECTOR('',#617,1.);
#617 = DIRECTION('',(0.,-1.,6.437626716043E-16));
#618 = ORIENTED_EDGE('',*,*,#619,.F.);
#619 = EDGE_CURVE('',#581,#612,#620,.T.);
#620 = LINE('',#621,#622);
#621 = CARTESIAN_POINT('',(32.5,2.797762022055E-14,42.));
#622 = VECTOR('',#623,1.);
#623 = DIRECTION('',(0.,-6.661338147751E-16,-1.));
#624 = PLANE('',#625);
#625 = AXIS2_PLACEMENT_3D('',#626,#627,#628);
#626 = CARTESIAN_POINT('',(32.5,2.797762022055E-14,42.));
#627 = DIRECTION('',(1.,0.,0.));
#628 = DIRECTION('',(0.,-6.661338147751E-16,-1.));
#629 = ADVANCED_FACE('',(#630),#655,.T.);
#630 = FACE_BOUND('',#631,.T.);
#631 = EDGE_LOOP('',(#632,#633,#641,#649));
#632 = ORIENTED_EDGE('',*,*,#611,.T.);
#633 = ORIENTED_EDGE('',*,*,#634,.T.);
#634 = EDGE_CURVE('',#604,#635,#637,.T.);
#635 = VERTEX_POINT('',#636);
#636 = CARTESIAN_POINT('',(-32.5,-2.,10.));
#637 = LINE('',#638,#639);
#638 = CARTESIAN_POINT('',(32.5,-2.,10.));
#639 = VECTOR('',#640,1.);
#640 = DIRECTION('',(-1.,0.,0.));
#641 = ORIENTED_EDGE('',*,*,#642,.F.);
#642 = EDGE_CURVE('',#643,#635,#645,.T.);
#643 = VERTEX_POINT('',#644);
#644 = CARTESIAN_POINT('',(-32.5,6.661338147751E-15,10.));
#645 = LINE('',#646,#647);
#646 = CARTESIAN_POINT('',(-32.5,6.661338147751E-15,10.));
#647 = VECTOR('',#648,1.);
#648 = DIRECTION('',(0.,-1.,6.437626716043E-16));
#649 = ORIENTED_EDGE('',*,*,#650,.F.);
#650 = EDGE_CURVE('',#612,#643,#651,.T.);
#651 = LINE('',#652,#653);
#652 = CARTESIAN_POINT('',(32.5,6.661338147751E-15,10.));
#653 = VECTOR('',#654,1.);
#654 = DIRECTION('',(-1.,0.,0.));
#655 = PLANE('',#656);
#656 = AXIS2_PLACEMENT_3D('',#657,#658,#659);
#657 = CARTESIAN_POINT('',(32.5,6.661338147751E-15,10.));
#658 = DIRECTION('',(0.,-6.437626716043E-16,-1.));
#659 = DIRECTION('',(-1.,0.,0.));
#660 = ADVANCED_FACE('',(#661),#677,.T.);
#661 = FACE_BOUND('',#662,.T.);
#662 = EDGE_LOOP('',(#663,#664,#670,#671));
#663 = ORIENTED_EDGE('',*,*,#642,.T.);
#664 = ORIENTED_EDGE('',*,*,#665,.T.);
#665 = EDGE_CURVE('',#635,#565,#666,.T.);
#666 = LINE('',#667,#668);
#667 = CARTESIAN_POINT('',(-32.5,-2.,10.));
#668 = VECTOR('',#669,1.);
#669 = DIRECTION('',(0.,6.661338147751E-16,1.));
#670 = ORIENTED_EDGE('',*,*,#562,.F.);
#671 = ORIENTED_EDGE('',*,*,#672,.F.);
#672 = EDGE_CURVE('',#643,#563,#673,.T.);
#673 = LINE('',#674,#675);
#674 = CARTESIAN_POINT('',(-32.5,6.661338147751E-15,10.));
#675 = VECTOR('',#676,1.);
#676 = DIRECTION('',(0.,6.661338147751E-16,1.));
#677 = PLANE('',#678);
#678 = AXIS2_PLACEMENT_3D('',#679,#680,#681);
#679 = CARTESIAN_POINT('',(-32.5,6.661338147751E-15,10.));
#680 = DIRECTION('',(-1.,0.,0.));
#681 = DIRECTION('',(0.,6.661338147751E-16,1.));
#682 = ADVANCED_FACE('',(#683),#717,.F.);
#683 = FACE_BOUND('',#684,.F.);
#684 = EDGE_LOOP('',(#685,#695,#703,#711));
#685 = ORIENTED_EDGE('',*,*,#686,.T.);
#686 = EDGE_CURVE('',#687,#689,#691,.T.);
#687 = VERTEX_POINT('',#688);
#688 = CARTESIAN_POINT('',(-25.5,1.265654248073E-14,19.));
#689 = VERTEX_POINT('',#690);
#690 = CARTESIAN_POINT('',(-25.5,-2.,19.));
#691 = LINE('',#692,#693);
#692 = CARTESIAN_POINT('',(-25.5,1.265654248073E-14,19.));
#693 = VECTOR('',#694,1.);
#694 = DIRECTION('',(0.,-1.,6.437626716043E-16));
#695 = ORIENTED_EDGE('',*,*,#696,.T.);
#696 = EDGE_CURVE('',#689,#697,#699,.T.);
#697 = VERTEX_POINT('',#698);
#698 = CARTESIAN_POINT('',(-25.5,-2.,35.));
#699 = LINE('',#700,#701);
#700 = CARTESIAN_POINT('',(-25.5,-2.,19.));
#701 = VECTOR('',#702,1.);
#702 = DIRECTION('',(0.,6.661338147751E-16,1.));
#703 = ORIENTED_EDGE('',*,*,#704,.F.);
#704 = EDGE_CURVE('',#705,#697,#707,.T.);
#705 = VERTEX_POINT('',#706);
#706 = CARTESIAN_POINT('',(-25.5,2.331468351713E-14,35.));
#707 = LINE('',#708,#709);
#708 = CARTESIAN_POINT('',(-25.5,2.331468351713E-14,35.));
#709 = VECTOR('',#710,1.);
#710 = DIRECTION('',(0.,-1.,6.437626716043E-16));
#711 = ORIENTED_EDGE('',*,*,#712,.F.);
#712 = EDGE_CURVE('',#687,#705,#713,.T.);
#713 = LINE('',#714,#715);
#714 = CARTESIAN_POINT('',(-25.5,1.265654248073E-14,19.));
#715 = VECTOR('',#716,1.);
#716 = DIRECTION('',(0.,6.661338147751E-16,1.));
#717 = PLANE('',#718);
#718 = AXIS2_PLACEMENT_3D('',#719,#720,#721);
#719 = CARTESIAN_POINT('',(-25.5,1.265654248073E-14,19.));
#720 = DIRECTION('',(-1.,0.,0.));
#721 = DIRECTION('',(0.,6.661338147751E-16,1.));
#722 = ADVANCED_FACE('',(#723),#748,.F.);
#723 = FACE_BOUND('',#724,.F.);
#724 = EDGE_LOOP('',(#725,#735,#741,#742));
#725 = ORIENTED_EDGE('',*,*,#726,.T.);
#726 = EDGE_CURVE('',#727,#729,#731,.T.);
#727 = VERTEX_POINT('',#728);
#728 = CARTESIAN_POINT('',(25.5,1.265654248073E-14,19.));
#729 = VERTEX_POINT('',#730);
#730 = CARTESIAN_POINT('',(25.5,-2.,19.));
#731 = LINE('',#732,#733);
#732 = CARTESIAN_POINT('',(25.5,1.265654248073E-14,19.));
#733 = VECTOR('',#734,1.);
#734 = DIRECTION('',(0.,-1.,6.437626716043E-16));
#735 = ORIENTED_EDGE('',*,*,#736,.T.);
#736 = EDGE_CURVE('',#729,#689,#737,.T.);
#737 = LINE('',#738,#739);
#738 = CARTESIAN_POINT('',(25.5,-2.,19.));
#739 = VECTOR('',#740,1.);
#740 = DIRECTION('',(-1.,0.,0.));
#741 = ORIENTED_EDGE('',*,*,#686,.F.);
#742 = ORIENTED_EDGE('',*,*,#743,.F.);
#743 = EDGE_CURVE('',#727,#687,#744,.T.);
#744 = LINE('',#745,#746);
#745 = CARTESIAN_POINT('',(25.5,1.265654248073E-14,19.));
#746 = VECTOR('',#747,1.);
#747 = DIRECTION('',(-1.,0.,0.));
#748 = PLANE('',#749);
#749 = AXIS2_PLACEMENT_3D('',#750,#751,#752);
#750 = CARTESIAN_POINT('',(25.5,1.265654248073E-14,19.));
#751 = DIRECTION('',(0.,-6.437626716043E-16,-1.));
#752 = DIRECTION('',(-1.,0.,0.));
#753 = ADVANCED_FACE('',(#754),#779,.F.);
#754 = FACE_BOUND('',#755,.F.);
#755 = EDGE_LOOP('',(#756,#766,#772,#773));
#756 = ORIENTED_EDGE('',*,*,#757,.T.);
#757 = EDGE_CURVE('',#758,#760,#762,.T.);
#758 = VERTEX_POINT('',#759);
#759 = CARTESIAN_POINT('',(25.5,2.331468351713E-14,35.));
#760 = VERTEX_POINT('',#761);
#761 = CARTESIAN_POINT('',(25.5,-2.,35.));
#762 = LINE('',#763,#764);
#763 = CARTESIAN_POINT('',(25.5,2.331468351713E-14,35.));
#764 = VECTOR('',#765,1.);
#765 = DIRECTION('',(0.,-1.,6.437626716043E-16));
#766 = ORIENTED_EDGE('',*,*,#767,.T.);
#767 = EDGE_CURVE('',#760,#729,#768,.T.);
#768 = LINE('',#769,#770);
#769 = CARTESIAN_POINT('',(25.5,-2.,35.));
#770 = VECTOR('',#771,1.);
#771 = DIRECTION('',(0.,-6.661338147751E-16,-1.));
#772 = ORIENTED_EDGE('',*,*,#726,.F.);
#773 = ORIENTED_EDGE('',*,*,#774,.F.);
#774 = EDGE_CURVE('',#758,#727,#775,.T.);
#775 = LINE('',#776,#777);
#776 = CARTESIAN_POINT('',(25.5,2.331468351713E-14,35.));
#777 = VECTOR('',#778,1.);
#778 = DIRECTION('',(0.,-6.661338147751E-16,-1.));
#779 = PLANE('',#780);
#780 = AXIS2_PLACEMENT_3D('',#781,#782,#783);
#781 = CARTESIAN_POINT('',(25.5,2.331468351713E-14,35.));
#782 = DIRECTION('',(1.,0.,0.));
#783 = DIRECTION('',(0.,-6.661338147751E-16,-1.));
#784 = ADVANCED_FACE('',(#785),#801,.F.);
#785 = FACE_BOUND('',#786,.F.);
#786 = EDGE_LOOP('',(#787,#788,#794,#795));
#787 = ORIENTED_EDGE('',*,*,#704,.T.);
#788 = ORIENTED_EDGE('',*,*,#789,.T.);
#789 = EDGE_CURVE('',#697,#760,#790,.T.);
#790 = LINE('',#791,#792);
#791 = CARTESIAN_POINT('',(-25.5,-2.,35.));
#792 = VECTOR('',#793,1.);
#793 = DIRECTION('',(1.,0.,0.));
#794 = ORIENTED_EDGE('',*,*,#757,.F.);
#795 = ORIENTED_EDGE('',*,*,#796,.F.);
#796 = EDGE_CURVE('',#705,#758,#797,.T.);
#797 = LINE('',#798,#799);
#798 = CARTESIAN_POINT('',(-25.5,2.331468351713E-14,35.));
#799 = VECTOR('',#800,1.);
#800 = DIRECTION('',(1.,0.,0.));
#801 = PLANE('',#802);
#802 = AXIS2_PLACEMENT_3D('',#803,#804,#805);
#803 = CARTESIAN_POINT('',(-25.5,2.331468351713E-14,35.));
#804 = DIRECTION('',(0.,6.437626716043E-16,1.));
#805 = DIRECTION('',(1.,0.,0.));
#806 = ADVANCED_FACE('',(#807),#834,.F.);
#807 = FACE_BOUND('',#808,.T.);
#808 = EDGE_LOOP('',(#809,#819,#826,#827));
#809 = ORIENTED_EDGE('',*,*,#810,.T.);
#810 = EDGE_CURVE('',#811,#813,#815,.T.);
#811 = VERTEX_POINT('',#812);
#812 = CARTESIAN_POINT('',(30.2,2.564615186884E-14,38.5));
#813 = VERTEX_POINT('',#814);
#814 = CARTESIAN_POINT('',(30.2,-2.,38.5));
#815 = LINE('',#816,#817);
#816 = CARTESIAN_POINT('',(30.2,2.564615186884E-14,38.5));
#817 = VECTOR('',#818,1.);
#818 = DIRECTION('',(0.,-1.,6.437626716043E-16));
#819 = ORIENTED_EDGE('',*,*,#820,.T.);
#820 = EDGE_CURVE('',#813,#813,#821,.T.);
#821 = CIRCLE('',#822,1.2);
#822 = AXIS2_PLACEMENT_3D('',#823,#824,#825);
#823 = CARTESIAN_POINT('',(29.,-2.,38.5));
#824 = DIRECTION('',(0.,-1.,6.661338147751E-16));
#825 = DIRECTION('',(1.,0.,0.));
#826 = ORIENTED_EDGE('',*,*,#810,.F.);
#827 = ORIENTED_EDGE('',*,*,#828,.F.);
#828 = EDGE_CURVE('',#811,#811,#829,.T.);
#829 = CIRCLE('',#830,1.2);
#830 = AXIS2_PLACEMENT_3D('',#831,#832,#833);
#831 = CARTESIAN_POINT('',(29.,2.564615186884E-14,38.5));
#832 = DIRECTION('',(0.,-1.,6.661338147751E-16));
#833 = DIRECTION('',(1.,0.,0.));
#834 = CYLINDRICAL_SURFACE('',#835,1.2);
#835 = AXIS2_PLACEMENT_3D('',#836,#837,#838);
#836 = CARTESIAN_POINT('',(29.,2.564615186884E-14,38.5));
#837 = DIRECTION('',(0.,1.,-6.661338147751E-16));
#838 = DIRECTION('',(1.,0.,0.));
#839 = ADVANCED_FACE('',(#840),#867,.F.);
#840 = FACE_BOUND('',#841,.T.);
#841 = EDGE_LOOP('',(#842,#852,#859,#860));
#842 = ORIENTED_EDGE('',*,*,#843,.T.);
#843 = EDGE_CURVE('',#844,#846,#848,.T.);
#844 = VERTEX_POINT('',#845);
#845 = CARTESIAN_POINT('',(-27.8,2.564615186884E-14,38.5));
#846 = VERTEX_POINT('',#847);
#847 = CARTESIAN_POINT('',(-27.8,-2.,38.5));
#848 = LINE('',#849,#850);
#849 = CARTESIAN_POINT('',(-27.8,2.564615186884E-14,38.5));
#850 = VECTOR('',#851,1.);
#851 = DIRECTION('',(0.,-1.,6.437626716043E-16));
#852 = ORIENTED_EDGE('',*,*,#853,.T.);
#853 = EDGE_CURVE('',#846,#846,#854,.T.);
#854 = CIRCLE('',#855,1.2);
#855 = AXIS2_PLACEMENT_3D('',#856,#857,#858);
#856 = CARTESIAN_POINT('',(-29.,-2.,38.5));
#857 = DIRECTION('',(0.,-1.,6.661338147751E-16));
#858 = DIRECTION('',(1.,0.,0.));
#859 = ORIENTED_EDGE('',*,*,#843,.F.);
#860 = ORIENTED_EDGE('',*,*,#861,.F.);
#861 = EDGE_CURVE('',#844,#844,#862,.T.);
#862 = CIRCLE('',#863,1.2);
#863 = AXIS2_PLACEMENT_3D('',#864,#865,#866);
#864 = CARTESIAN_POINT('',(-29.,2.564615186884E-14,38.5));
#865 = DIRECTION('',(0.,-1.,6.661338147751E-16));
#866 = DIRECTION('',(1.,0.,0.));
#867 = CYLINDRICAL_SURFACE('',#868,1.2);
#868 = AXIS2_PLACEMENT_3D('',#869,#870,#871);
#869 = CARTESIAN_POINT('',(-29.,2.564615186884E-14,38.5));
#870 = DIRECTION('',(0.,1.,-6.661338147751E-16));
#871 = DIRECTION('',(1.,0.,0.));
#872 = ADVANCED_FACE('',(#873),#900,.F.);
#873 = FACE_BOUND('',#874,.T.);
#874 = EDGE_LOOP('',(#875,#885,#892,#893));
#875 = ORIENTED_EDGE('',*,*,#876,.T.);
#876 = EDGE_CURVE('',#877,#879,#881,.T.);
#877 = VERTEX_POINT('',#878);
#878 = CARTESIAN_POINT('',(-27.8,1.032507412901E-14,15.5));
#879 = VERTEX_POINT('',#880);
#880 = CARTESIAN_POINT('',(-27.8,-2.,15.5));
#881 = LINE('',#882,#883);
#882 = CARTESIAN_POINT('',(-27.8,1.032507412901E-14,15.5));
#883 = VECTOR('',#884,1.);
#884 = DIRECTION('',(0.,-1.,6.437626716043E-16));
#885 = ORIENTED_EDGE('',*,*,#886,.T.);
#886 = EDGE_CURVE('',#879,#879,#887,.T.);
#887 = CIRCLE('',#888,1.2);
#888 = AXIS2_PLACEMENT_3D('',#889,#890,#891);
#889 = CARTESIAN_POINT('',(-29.,-2.,15.5));
#890 = DIRECTION('',(0.,-1.,6.661338147751E-16));
#891 = DIRECTION('',(1.,0.,0.));
#892 = ORIENTED_EDGE('',*,*,#876,.F.);
#893 = ORIENTED_EDGE('',*,*,#894,.F.);
#894 = EDGE_CURVE('',#877,#877,#895,.T.);
#895 = CIRCLE('',#896,1.2);
#896 = AXIS2_PLACEMENT_3D('',#897,#898,#899);
#897 = CARTESIAN_POINT('',(-29.,1.032507412901E-14,15.5));
#898 = DIRECTION('',(0.,-1.,6.661338147751E-16));
#899 = DIRECTION('',(1.,0.,0.));
#900 = CYLINDRICAL_SURFACE('',#901,1.2);
#901 = AXIS2_PLACEMENT_3D('',#902,#903,#904);
#902 = CARTESIAN_POINT('',(-29.,1.032507412901E-14,15.5));
#903 = DIRECTION('',(0.,1.,-6.661338147751E-16));
#904 = DIRECTION('',(1.,0.,0.));
#905 = ADVANCED_FACE('',(#906),#933,.F.);
#906 = FACE_BOUND('',#907,.T.);
#907 = EDGE_LOOP('',(#908,#918,#925,#926));
#908 = ORIENTED_EDGE('',*,*,#909,.T.);
#909 = EDGE_CURVE('',#910,#912,#914,.T.);
#910 = VERTEX_POINT('',#911);
#911 = CARTESIAN_POINT('',(30.2,1.032507412901E-14,15.5));
#912 = VERTEX_POINT('',#913);
#913 = CARTESIAN_POINT('',(30.2,-2.,15.5));
#914 = LINE('',#915,#916);
#915 = CARTESIAN_POINT('',(30.2,1.032507412901E-14,15.5));
#916 = VECTOR('',#917,1.);
#917 = DIRECTION('',(0.,-1.,6.437626716043E-16));
#918 = ORIENTED_EDGE('',*,*,#919,.T.);
#919 = EDGE_CURVE('',#912,#912,#920,.T.);
#920 = CIRCLE('',#921,1.2);
#921 = AXIS2_PLACEMENT_3D('',#922,#923,#924);
#922 = CARTESIAN_POINT('',(29.,-2.,15.5));
#923 = DIRECTION('',(0.,-1.,6.661338147751E-16));
#924 = DIRECTION('',(1.,0.,0.));
#925 = ORIENTED_EDGE('',*,*,#909,.F.);
#926 = ORIENTED_EDGE('',*,*,#927,.F.);
#927 = EDGE_CURVE('',#910,#910,#928,.T.);
#928 = CIRCLE('',#929,1.2);
#929 = AXIS2_PLACEMENT_3D('',#930,#931,#932);
#930 = CARTESIAN_POINT('',(29.,1.032507412901E-14,15.5));
#931 = DIRECTION('',(0.,-1.,6.661338147751E-16));
#932 = DIRECTION('',(1.,0.,0.));
#933 = CYLINDRICAL_SURFACE('',#934,1.2);
#934 = AXIS2_PLACEMENT_3D('',#935,#936,#937);
#935 = CARTESIAN_POINT('',(29.,1.032507412901E-14,15.5));
#936 = DIRECTION('',(0.,1.,-6.661338147751E-16));
#937 = DIRECTION('',(1.,0.,0.));
#938 = ADVANCED_FACE('',(#939,#945,#951,#954,#957,#960),#963,.T.);
#939 = FACE_BOUND('',#940,.T.);
#940 = EDGE_LOOP('',(#941,#942,#943,#944));
#941 = ORIENTED_EDGE('',*,*,#588,.T.);
#942 = ORIENTED_EDGE('',*,*,#619,.T.);
#943 = ORIENTED_EDGE('',*,*,#650,.T.);
#944 = ORIENTED_EDGE('',*,*,#672,.T.);
#945 = FACE_BOUND('',#946,.T.);
#946 = EDGE_LOOP('',(#947,#948,#949,#950));
#947 = ORIENTED_EDGE('',*,*,#712,.F.);
#948 = ORIENTED_EDGE('',*,*,#743,.F.);
#949 = ORIENTED_EDGE('',*,*,#774,.F.);
#950 = ORIENTED_EDGE('',*,*,#796,.F.);
#951 = FACE_BOUND('',#952,.T.);
#952 = EDGE_LOOP('',(#953));
#953 = ORIENTED_EDGE('',*,*,#828,.T.);
#954 = FACE_BOUND('',#955,.T.);
#955 = EDGE_LOOP('',(#956));
#956 = ORIENTED_EDGE('',*,*,#861,.T.);
#957 = FACE_BOUND('',#958,.T.);
#958 = EDGE_LOOP('',(#959));
#959 = ORIENTED_EDGE('',*,*,#894,.T.);
#960 = FACE_BOUND('',#961,.T.);
#961 = EDGE_LOOP('',(#962));
#962 = ORIENTED_EDGE('',*,*,#927,.T.);
#963 = PLANE('',#964);
#964 = AXIS2_PLACEMENT_3D('',#965,#966,#967);
#965 = CARTESIAN_POINT('',(0.,1.731947918415E-14,26.));
#966 = DIRECTION('',(0.,1.,-6.661338147751E-16));
#967 = DIRECTION('',(0.,6.661338147751E-16,1.));
#968 = ADVANCED_FACE('',(#969,#975,#981,#984,#987,#990),#993,.F.);
#969 = FACE_BOUND('',#970,.F.);
#970 = EDGE_LOOP('',(#971,#972,#973,#974));
#971 = ORIENTED_EDGE('',*,*,#572,.T.);
#972 = ORIENTED_EDGE('',*,*,#603,.T.);
#973 = ORIENTED_EDGE('',*,*,#634,.T.);
#974 = ORIENTED_EDGE('',*,*,#665,.T.);
#975 = FACE_BOUND('',#976,.F.);
#976 = EDGE_LOOP('',(#977,#978,#979,#980));
#977 = ORIENTED_EDGE('',*,*,#696,.F.);
#978 = ORIENTED_EDGE('',*,*,#736,.F.);
#979 = ORIENTED_EDGE('',*,*,#767,.F.);
#980 = ORIENTED_EDGE('',*,*,#789,.F.);
#981 = FACE_BOUND('',#982,.F.);
#982 = EDGE_LOOP('',(#983));
#983 = ORIENTED_EDGE('',*,*,#820,.T.);
#984 = FACE_BOUND('',#985,.F.);
#985 = EDGE_LOOP('',(#986));
#986 = ORIENTED_EDGE('',*,*,#853,.T.);
#987 = FACE_BOUND('',#988,.F.);
#988 = EDGE_LOOP('',(#989));
#989 = ORIENTED_EDGE('',*,*,#886,.T.);
#990 = FACE_BOUND('',#991,.F.);
#991 = EDGE_LOOP('',(#992));
#992 = ORIENTED_EDGE('',*,*,#919,.T.);
#993 = PLANE('',#994);
#994 = AXIS2_PLACEMENT_3D('',#995,#996,#997);
#995 = CARTESIAN_POINT('',(0.,-2.,26.));
#996 = DIRECTION('',(0.,1.,-6.661338147751E-16));
#997 = DIRECTION('',(0.,6.661338147751E-16,1.));
#998 = ( GEOMETRIC_REPRESENTATION_CONTEXT(3) 
GLOBAL_UNCERTAINTY_ASSIGNED_CONTEXT((#1002)) 
GLOBAL_UNIT_ASSIGNED_CONTEXT((#999,#1000,#1001)) REPRESENTATION_CONTEXT(
  'Context #1','3D Context with UNIT and UNCERTAINTY') );
#999 = ( LENGTH_UNIT() NAMED_UNIT(*) SI_UNIT(.MILLI.,.METRE.) );
#1000 = ( NAMED_UNIT(*) PLANE_ANGLE_UNIT() SI_UNIT($,.RADIAN.) );
#1001 = ( NAMED_UNIT(*) SI_UNIT($,.STERADIAN.) SOLID_ANGLE_UNIT() );
#1002 = UNCERTAINTY_MEASURE_WITH_UNIT(LENGTH_MEASURE(1.E-07),#999,
  'distance_accuracy_value','confusion accuracy');
#1003 = SHAPE_DEFINITION_REPRESENTATION(#1004,#555);
#1004 = PRODUCT_DEFINITION_SHAPE('','',#1005);
#1005 = PRODUCT_DEFINITION('design','',#1006,#1009);
#1006 = PRODUCT_DEFINITION_FORMATION('','',#1007);
#1007 = PRODUCT('Body002','Body002','',(#1008));
#1008 = PRODUCT_CONTEXT('',#2,'mechanical');
#1009 = PRODUCT_DEFINITION_CONTEXT('part definition',#2,'design');
#1010 = CONTEXT_DEPENDENT_SHAPE_REPRESENTATION(#1011,#1013);
#1011 = ( REPRESENTATION_RELATIONSHIP('','',#555,#10) 
REPRESENTATION_RELATIONSHIP_WITH_TRANSFORMATION(#1012) 
SHAPE_REPRESENTATION_RELATIONSHIP() );
#1012 = ITEM_DEFINED_TRANSFORMATION('','',#11,#23);
#1013 = PRODUCT_DEFINITION_SHAPE('Placement','Placement of an item',
  #1014);
#1014 = NEXT_ASSEMBLY_USAGE_OCCURRENCE('3','Body002','',#5,#1005,$);
#1015 = PRODUCT_RELATED_PRODUCT_CATEGORY('part',$,(#1007));
#1016 = ADVANCED_BREP_SHAPE_REPRESENTATION('',(#11,#1017),#1109);
#1017 = MANIFOLD_SOLID_BREP('',#1018);
#1018 = CLOSED_SHELL('',(#1019,#1052,#1085,#1097));
#1019 = ADVANCED_FACE('',(#1020),#1047,.T.);
#1020 = FACE_BOUND('',#1021,.F.);
#1021 = EDGE_LOOP('',(#1022,#1032,#1039,#1040));
#1022 = ORIENTED_EDGE('',*,*,#1023,.T.);
#1023 = EDGE_CURVE('',#1024,#1026,#1028,.T.);
#1024 = VERTEX_POINT('',#1025);
#1025 = CARTESIAN_POINT('',(3.,0.,0.));
#1026 = VERTEX_POINT('',#1027);
#1027 = CARTESIAN_POINT('',(3.,-5.,3.218813358022E-15));
#1028 = LINE('',#1029,#1030);
#1029 = CARTESIAN_POINT('',(3.,0.,0.));
#1030 = VECTOR('',#1031,1.);
#1031 = DIRECTION('',(0.,-1.,6.437626716043E-16));
#1032 = ORIENTED_EDGE('',*,*,#1033,.T.);
#1033 = EDGE_CURVE('',#1026,#1026,#1034,.T.);
#1034 = CIRCLE('',#1035,3.);
#1035 = AXIS2_PLACEMENT_3D('',#1036,#1037,#1038);
#1036 = CARTESIAN_POINT('',(0.,-5.,2.6645352591E-15));
#1037 = DIRECTION('',(0.,-1.,6.661338147751E-16));
#1038 = DIRECTION('',(1.,0.,0.));
#1039 = ORIENTED_EDGE('',*,*,#1023,.F.);
#1040 = ORIENTED_EDGE('',*,*,#1041,.F.);
#1041 = EDGE_CURVE('',#1024,#1024,#1042,.T.);
#1042 = CIRCLE('',#1043,3.);
#1043 = AXIS2_PLACEMENT_3D('',#1044,#1045,#1046);
#1044 = CARTESIAN_POINT('',(0.,0.,0.));
#1045 = DIRECTION('',(0.,-1.,6.661338147751E-16));
#1046 = DIRECTION('',(1.,0.,0.));
#1047 = CYLINDRICAL_SURFACE('',#1048,3.);
#1048 = AXIS2_PLACEMENT_3D('',#1049,#1050,#1051);
#1049 = CARTESIAN_POINT('',(0.,0.,0.));
#1050 = DIRECTION('',(0.,1.,-6.661338147751E-16));
#1051 = DIRECTION('',(1.,0.,0.));
#1052 = ADVANCED_FACE('',(#1053),#1080,.F.);
#1053 = FACE_BOUND('',#1054,.T.);
#1054 = EDGE_LOOP('',(#1055,#1065,#1072,#1073));
#1055 = ORIENTED_EDGE('',*,*,#1056,.T.);
#1056 = EDGE_CURVE('',#1057,#1059,#1061,.T.);
#1057 = VERTEX_POINT('',#1058);
#1058 = CARTESIAN_POINT('',(1.2,0.,0.));
#1059 = VERTEX_POINT('',#1060);
#1060 = CARTESIAN_POINT('',(1.2,-5.,3.218813358022E-15));
#1061 = LINE('',#1062,#1063);
#1062 = CARTESIAN_POINT('',(1.2,0.,0.));
#1063 = VECTOR('',#1064,1.);
#1064 = DIRECTION('',(0.,-1.,6.437626716043E-16));
#1065 = ORIENTED_EDGE('',*,*,#1066,.T.);
#1066 = EDGE_CURVE('',#1059,#1059,#1067,.T.);
#1067 = CIRCLE('',#1068,1.2);
#1068 = AXIS2_PLACEMENT_3D('',#1069,#1070,#1071);
#1069 = CARTESIAN_POINT('',(0.,-5.,2.6645352591E-15));
#1070 = DIRECTION('',(0.,-1.,6.661338147751E-16));
#1071 = DIRECTION('',(1.,0.,0.));
#1072 = ORIENTED_EDGE('',*,*,#1056,.F.);
#1073 = ORIENTED_EDGE('',*,*,#1074,.F.);
#1074 = EDGE_CURVE('',#1057,#1057,#1075,.T.);
#1075 = CIRCLE('',#1076,1.2);
#1076 = AXIS2_PLACEMENT_3D('',#1077,#1078,#1079);
#1077 = CARTESIAN_POINT('',(0.,0.,0.));
#1078 = DIRECTION('',(0.,-1.,6.661338147751E-16));
#1079 = DIRECTION('',(1.,0.,0.));
#1080 = CYLINDRICAL_SURFACE('',#1081,1.2);
#1081 = AXIS2_PLACEMENT_3D('',#1082,#1083,#1084);
#1082 = CARTESIAN_POINT('',(0.,0.,0.));
#1083 = DIRECTION('',(0.,1.,-6.661338147751E-16));
#1084 = DIRECTION('',(1.,0.,0.));
#1085 = ADVANCED_FACE('',(#1086,#1089),#1092,.F.);
#1086 = FACE_BOUND('',#1087,.F.);
#1087 = EDGE_LOOP('',(#1088));
#1088 = ORIENTED_EDGE('',*,*,#1041,.T.);
#1089 = FACE_BOUND('',#1090,.F.);
#1090 = EDGE_LOOP('',(#1091));
#1091 = ORIENTED_EDGE('',*,*,#1074,.F.);
#1092 = PLANE('',#1093);
#1093 = AXIS2_PLACEMENT_3D('',#1094,#1095,#1096);
#1094 = CARTESIAN_POINT('',(-1.424416804729E-16,7.968662091342E-33,
    1.196255454174E-17));
#1095 = DIRECTION('',(-1.506913577713E-32,-1.,6.661338147751E-16));
#1096 = DIRECTION('',(0.,-6.661338147751E-16,-1.));
#1097 = ADVANCED_FACE('',(#1098,#1101),#1104,.T.);
#1098 = FACE_BOUND('',#1099,.T.);
#1099 = EDGE_LOOP('',(#1100));
#1100 = ORIENTED_EDGE('',*,*,#1033,.T.);
#1101 = FACE_BOUND('',#1102,.T.);
#1102 = EDGE_LOOP('',(#1103));
#1103 = ORIENTED_EDGE('',*,*,#1066,.F.);
#1104 = PLANE('',#1105);
#1105 = AXIS2_PLACEMENT_3D('',#1106,#1107,#1108);
#1106 = CARTESIAN_POINT('',(-1.424416804729E-16,-5.,2.6645352591E-15));
#1107 = DIRECTION('',(-1.506913577713E-32,-1.,6.661338147751E-16));
#1108 = DIRECTION('',(0.,-6.661338147751E-16,-1.));
#1109 = ( GEOMETRIC_REPRESENTATION_CONTEXT(3) 
GLOBAL_UNCERTAINTY_ASSIGNED_CONTEXT((#1113)) 
GLOBAL_UNIT_ASSIGNED_CONTEXT((#1110,#1111,#1112)) REPRESENTATION_CONTEXT
('Context #1','3D Context with UNIT and UNCERTAINTY') );
#1110 = ( LENGTH_UNIT() NAMED_UNIT(*) SI_UNIT(.MILLI.,.METRE.) );
#1111 = ( NAMED_UNIT(*) PLANE_ANGLE_UNIT() SI_UNIT($,.RADIAN.) );
#1112 = ( NAMED_UNIT(*) SI_UNIT($,.STERADIAN.) SOLID_ANGLE_UNIT() );
#1113 = UNCERTAINTY_MEASURE_WITH_UNIT(LENGTH_MEASURE(1.E-07),#1110,
  'distance_accuracy_value','confusion accuracy');
#1114 = SHAPE_DEFINITION_REPRESENTATION(#1115,#1016);
#1115 = PRODUCT_DEFINITION_SHAPE('','',#1116);
#1116 = PRODUCT_DEFINITION('design','',#1117,#1120);
#1117 = PRODUCT_DEFINITION_FORMATION('','',#1118);
#1118 = PRODUCT('Body003','Body003','',(#1119));
#1119 = PRODUCT_CONTEXT('',#2,'mechanical');
#1120 = PRODUCT_DEFINITION_CONTEXT('part definition',#2,'design');
#1121 = CONTEXT_DEPENDENT_SHAPE_REPRESENTATION(#1122,#1124);
#1122 = ( REPRESENTATION_RELATIONSHIP('','',#1016,#10) 
REPRESENTATION_RELATIONSHIP_WITH_TRANSFORMATION(#1123) 
SHAPE_REPRESENTATION_RELATIONSHIP() );
#1123 = ITEM_DEFINED_TRANSFORMATION('','',#11,#27);
#1124 = PRODUCT_DEFINITION_SHAPE('Placement','Placement of an item',
  #1125);
#1125 = NEXT_ASSEMBLY_USAGE_OCCURRENCE('4','Body003','',#5,#1116,$);
#1126 = PRODUCT_RELATED_PRODUCT_CATEGORY('part',$,(#1118));
#1127 = ADVANCED_BREP_SHAPE_REPRESENTATION('',(#11,#1128),#1220);
#1128 = MANIFOLD_SOLID_BREP('',#1129);
#1129 = CLOSED_SHELL('',(#1130,#1163,#1196,#1208));
#1130 = ADVANCED_FACE('',(#1131),#1158,.T.);
#1131 = FACE_BOUND('',#1132,.F.);
#1132 = EDGE_LOOP('',(#1133,#1143,#1150,#1151));
#1133 = ORIENTED_EDGE('',*,*,#1134,.T.);
#1134 = EDGE_CURVE('',#1135,#1137,#1139,.T.);
#1135 = VERTEX_POINT('',#1136);
#1136 = CARTESIAN_POINT('',(3.,0.,0.));
#1137 = VERTEX_POINT('',#1138);
#1138 = CARTESIAN_POINT('',(3.,-5.,4.E-15));
#1139 = LINE('',#1140,#1141);
#1140 = CARTESIAN_POINT('',(3.,0.,0.));
#1141 = VECTOR('',#1142,1.);
#1142 = DIRECTION('',(0.,-1.,6.4E-16));
#1143 = ORIENTED_EDGE('',*,*,#1144,.T.);
#1144 = EDGE_CURVE('',#1137,#1137,#1145,.T.);
#1145 = CIRCLE('',#1146,3.);
#1146 = AXIS2_PLACEMENT_3D('',#1147,#1148,#1149);
#1147 = CARTESIAN_POINT('',(0.,-5.,8.881784197001E-16));
#1148 = DIRECTION('',(0.,-1.,2.2E-16));
#1149 = DIRECTION('',(1.,0.,0.));
#1150 = ORIENTED_EDGE('',*,*,#1134,.F.);
#1151 = ORIENTED_EDGE('',*,*,#1152,.F.);
#1152 = EDGE_CURVE('',#1135,#1135,#1153,.T.);
#1153 = CIRCLE('',#1154,3.);
#1154 = AXIS2_PLACEMENT_3D('',#1155,#1156,#1157);
#1155 = CARTESIAN_POINT('',(0.,0.,0.));
#1156 = DIRECTION('',(0.,-1.,2.2E-16));
#1157 = DIRECTION('',(1.,0.,0.));
#1158 = CYLINDRICAL_SURFACE('',#1159,3.);
#1159 = AXIS2_PLACEMENT_3D('',#1160,#1161,#1162);
#1160 = CARTESIAN_POINT('',(0.,0.,0.));
#1161 = DIRECTION('',(0.,1.,-6.7E-16));
#1162 = DIRECTION('',(1.,0.,0.));
#1163 = ADVANCED_FACE('',(#1164),#1191,.F.);
#1164 = FACE_BOUND('',#1165,.T.);
#1165 = EDGE_LOOP('',(#1166,#1176,#1183,#1184));
#1166 = ORIENTED_EDGE('',*,*,#1167,.T.);
#1167 = EDGE_CURVE('',#1168,#1170,#1172,.T.);
#1168 = VERTEX_POINT('',#1169);
#1169 = CARTESIAN_POINT('',(1.2,0.,0.));
#1170 = VERTEX_POINT('',#1171);
#1171 = CARTESIAN_POINT('',(1.2,-5.,4.E-15));
#1172 = LINE('',#1173,#1174);
#1173 = CARTESIAN_POINT('',(1.2,0.,0.));
#1174 = VECTOR('',#1175,1.);
#1175 = DIRECTION('',(0.,-1.,6.4E-16));
#1176 = ORIENTED_EDGE('',*,*,#1177,.T.);
#1177 = EDGE_CURVE('',#1170,#1170,#1178,.T.);
#1178 = CIRCLE('',#1179,1.2);
#1179 = AXIS2_PLACEMENT_3D('',#1180,#1181,#1182);
#1180 = CARTESIAN_POINT('',(0.,-5.,8.881784197001E-16));
#1181 = DIRECTION('',(0.,-1.,2.2E-16));
#1182 = DIRECTION('',(1.,0.,0.));
#1183 = ORIENTED_EDGE('',*,*,#1167,.F.);
#1184 = ORIENTED_EDGE('',*,*,#1185,.F.);
#1185 = EDGE_CURVE('',#1168,#1168,#1186,.T.);
#1186 = CIRCLE('',#1187,1.2);
#1187 = AXIS2_PLACEMENT_3D('',#1188,#1189,#1190);
#1188 = CARTESIAN_POINT('',(0.,0.,0.));
#1189 = DIRECTION('',(0.,-1.,2.2E-16));
#1190 = DIRECTION('',(1.,0.,0.));
#1191 = CYLINDRICAL_SURFACE('',#1192,1.2);
#1192 = AXIS2_PLACEMENT_3D('',#1193,#1194,#1195);
#1193 = CARTESIAN_POINT('',(0.,0.,0.));
#1194 = DIRECTION('',(0.,1.,-6.7E-16));
#1195 = DIRECTION('',(1.,0.,0.));
#1196 = ADVANCED_FACE('',(#1197,#1200),#1203,.F.);
#1197 = FACE_BOUND('',#1198,.F.);
#1198 = EDGE_LOOP('',(#1199));
#1199 = ORIENTED_EDGE('',*,*,#1152,.T.);
#1200 = FACE_BOUND('',#1201,.F.);
#1201 = EDGE_LOOP('',(#1202));
#1202 = ORIENTED_EDGE('',*,*,#1185,.F.);
#1203 = PLANE('',#1204);
#1204 = AXIS2_PLACEMENT_3D('',#1205,#1206,#1207);
#1205 = CARTESIAN_POINT('',(-1.4E-16,0.,1.E-17));
#1206 = DIRECTION('',(-0.,-1.,4.4E-16));
#1207 = DIRECTION('',(0.,-4.4E-16,-1.));
#1208 = ADVANCED_FACE('',(#1209,#1212),#1215,.T.);
#1209 = FACE_BOUND('',#1210,.T.);
#1210 = EDGE_LOOP('',(#1211));
#1211 = ORIENTED_EDGE('',*,*,#1144,.T.);
#1212 = FACE_BOUND('',#1213,.T.);
#1213 = EDGE_LOOP('',(#1214));
#1214 = ORIENTED_EDGE('',*,*,#1177,.F.);
#1215 = PLANE('',#1216);
#1216 = AXIS2_PLACEMENT_3D('',#1217,#1218,#1219);
#1217 = CARTESIAN_POINT('',(-1.4E-16,-5.,1.7763568394E-15));
#1218 = DIRECTION('',(-0.,-1.,4.4E-16));
#1219 = DIRECTION('',(0.,-4.4E-16,-1.));
#1220 = ( GEOMETRIC_REPRESENTATION_CONTEXT(3) 
GLOBAL_UNCERTAINTY_ASSIGNED_CONTEXT((#1224)) 
GLOBAL_UNIT_ASSIGNED_CONTEXT((#1221,#1222,#1223)) REPRESENTATION_CONTEXT
('Context #1','3D Context with UNIT and UNCERTAINTY') );
#1221 = ( LENGTH_UNIT() NAMED_UNIT(*) SI_UNIT(.MILLI.,.METRE.) );
#1222 = ( NAMED_UNIT(*) PLANE_ANGLE_UNIT() SI_UNIT($,.RADIAN.) );
#1223 = ( NAMED_UNIT(*) SI_UNIT($,.STERADIAN.) SOLID_ANGLE_UNIT() );
#1224 = UNCERTAINTY_MEASURE_WITH_UNIT(LENGTH_MEASURE(1.E-07),#1221,
  'distance_accuracy_value','confusion accuracy');
#1225 = SHAPE_DEFINITION_REPRESENTATION(#1226,#1127);
#1226 = PRODUCT_DEFINITION_SHAPE('','',#1227);
#1227 = PRODUCT_DEFINITION('design','',#1228,#1231);
#1228 = PRODUCT_DEFINITION_FORMATION('','',#1229);
#1229 = PRODUCT('Body004','Body004','',(#1230));
#1230 = PRODUCT_CONTEXT('',#2,'mechanical');
#1231 = PRODUCT_DEFINITION_CONTEXT('part definition',#2,'design');
#1232 = CONTEXT_DEPENDENT_SHAPE_REPRESENTATION(#1233,#1235);
#1233 = ( REPRESENTATION_RELATIONSHIP('','',#1127,#10) 
REPRESENTATION_RELATIONSHIP_WITH_TRANSFORMATION(#1234) 
SHAPE_REPRESENTATION_RELATIONSHIP() );
#1234 = ITEM_DEFINED_TRANSFORMATION('','',#11,#31);
#1235 = PRODUCT_DEFINITION_SHAPE('Placement','Placement of an item',
  #1236);
#1236 = NEXT_ASSEMBLY_USAGE_OCCURRENCE('5','Body004','',#5,#1227,$);
#1237 = PRODUCT_RELATED_PRODUCT_CATEGORY('part',$,(#1229));
#1238 = ADVANCED_BREP_SHAPE_REPRESENTATION('',(#11,#1239),#1331);
#1239 = MANIFOLD_SOLID_BREP('',#1240);
#1240 = CLOSED_SHELL('',(#1241,#1274,#1307,#1319));
#1241 = ADVANCED_FACE('',(#1242),#1269,.T.);
#1242 = FACE_BOUND('',#1243,.F.);
#1243 = EDGE_LOOP('',(#1244,#1254,#1261,#1262));
#1244 = ORIENTED_EDGE('',*,*,#1245,.T.);
#1245 = EDGE_CURVE('',#1246,#1248,#1250,.T.);
#1246 = VERTEX_POINT('',#1247);
#1247 = CARTESIAN_POINT('',(3.,0.,0.));
#1248 = VERTEX_POINT('',#1249);
#1249 = CARTESIAN_POINT('',(3.,-5.,4.E-15));
#1250 = LINE('',#1251,#1252);
#1251 = CARTESIAN_POINT('',(3.,0.,0.));
#1252 = VECTOR('',#1253,1.);
#1253 = DIRECTION('',(0.,-1.,6.4E-16));
#1254 = ORIENTED_EDGE('',*,*,#1255,.T.);
#1255 = EDGE_CURVE('',#1248,#1248,#1256,.T.);
#1256 = CIRCLE('',#1257,3.);
#1257 = AXIS2_PLACEMENT_3D('',#1258,#1259,#1260);
#1258 = CARTESIAN_POINT('',(0.,-5.,8.881784197001E-16));
#1259 = DIRECTION('',(0.,-1.,2.2E-16));
#1260 = DIRECTION('',(1.,0.,0.));
#1261 = ORIENTED_EDGE('',*,*,#1245,.F.);
#1262 = ORIENTED_EDGE('',*,*,#1263,.F.);
#1263 = EDGE_CURVE('',#1246,#1246,#1264,.T.);
#1264 = CIRCLE('',#1265,3.);
#1265 = AXIS2_PLACEMENT_3D('',#1266,#1267,#1268);
#1266 = CARTESIAN_POINT('',(0.,0.,0.));
#1267 = DIRECTION('',(0.,-1.,2.2E-16));
#1268 = DIRECTION('',(1.,0.,0.));
#1269 = CYLINDRICAL_SURFACE('',#1270,3.);
#1270 = AXIS2_PLACEMENT_3D('',#1271,#1272,#1273);
#1271 = CARTESIAN_POINT('',(0.,0.,0.));
#1272 = DIRECTION('',(0.,1.,-6.7E-16));
#1273 = DIRECTION('',(1.,0.,0.));
#1274 = ADVANCED_FACE('',(#1275),#1302,.F.);
#1275 = FACE_BOUND('',#1276,.T.);
#1276 = EDGE_LOOP('',(#1277,#1287,#1294,#1295));
#1277 = ORIENTED_EDGE('',*,*,#1278,.T.);
#1278 = EDGE_CURVE('',#1279,#1281,#1283,.T.);
#1279 = VERTEX_POINT('',#1280);
#1280 = CARTESIAN_POINT('',(1.2,0.,0.));
#1281 = VERTEX_POINT('',#1282);
#1282 = CARTESIAN_POINT('',(1.2,-5.,4.E-15));
#1283 = LINE('',#1284,#1285);
#1284 = CARTESIAN_POINT('',(1.2,0.,0.));
#1285 = VECTOR('',#1286,1.);
#1286 = DIRECTION('',(0.,-1.,6.4E-16));
#1287 = ORIENTED_EDGE('',*,*,#1288,.T.);
#1288 = EDGE_CURVE('',#1281,#1281,#1289,.T.);
#1289 = CIRCLE('',#1290,1.2);
#1290 = AXIS2_PLACEMENT_3D('',#1291,#1292,#1293);
#1291 = CARTESIAN_POINT('',(0.,-5.,8.881784197001E-16));
#1292 = DIRECTION('',(0.,-1.,2.2E-16));
#1293 = DIRECTION('',(1.,0.,0.));
#1294 = ORIENTED_EDGE('',*,*,#1278,.F.);
#1295 = ORIENTED_EDGE('',*,*,#1296,.F.);
#1296 = EDGE_CURVE('',#1279,#1279,#1297,.T.);
#1297 = CIRCLE('',#1298,1.2);
#1298 = AXIS2_PLACEMENT_3D('',#1299,#1300,#1301);
#1299 = CARTESIAN_POINT('',(0.,0.,0.));
#1300 = DIRECTION('',(0.,-1.,2.2E-16));
#1301 = DIRECTION('',(1.,0.,0.));
#1302 = CYLINDRICAL_SURFACE('',#1303,1.2);
#1303 = AXIS2_PLACEMENT_3D('',#1304,#1305,#1306);
#1304 = CARTESIAN_POINT('',(0.,0.,0.));
#1305 = DIRECTION('',(0.,1.,-6.7E-16));
#1306 = DIRECTION('',(1.,0.,0.));
#1307 = ADVANCED_FACE('',(#1308,#1311),#1314,.F.);
#1308 = FACE_BOUND('',#1309,.F.);
#1309 = EDGE_LOOP('',(#1310));
#1310 = ORIENTED_EDGE('',*,*,#1263,.T.);
#1311 = FACE_BOUND('',#1312,.F.);
#1312 = EDGE_LOOP('',(#1313));
#1313 = ORIENTED_EDGE('',*,*,#1296,.F.);
#1314 = PLANE('',#1315);
#1315 = AXIS2_PLACEMENT_3D('',#1316,#1317,#1318);
#1316 = CARTESIAN_POINT('',(-1.4E-16,0.,1.E-17));
#1317 = DIRECTION('',(-0.,-1.,4.4E-16));
#1318 = DIRECTION('',(0.,-4.4E-16,-1.));
#1319 = ADVANCED_FACE('',(#1320,#1323),#1326,.T.);
#1320 = FACE_BOUND('',#1321,.T.);
#1321 = EDGE_LOOP('',(#1322));
#1322 = ORIENTED_EDGE('',*,*,#1255,.T.);
#1323 = FACE_BOUND('',#1324,.T.);
#1324 = EDGE_LOOP('',(#1325));
#1325 = ORIENTED_EDGE('',*,*,#1288,.F.);
#1326 = PLANE('',#1327);
#1327 = AXIS2_PLACEMENT_3D('',#1328,#1329,#1330);
#1328 = CARTESIAN_POINT('',(-1.4E-16,-5.,1.7763568394E-15));
#1329 = DIRECTION('',(-0.,-1.,4.4E-16));
#1330 = DIRECTION('',(0.,-4.4E-16,-1.));
#1331 = ( GEOMETRIC_REPRESENTATION_CONTEXT(3) 
GLOBAL_UNCERTAINTY_ASSIGNED_CONTEXT((#1335)) 
GLOBAL_UNIT_ASSIGNED_CONTEXT((#1332,#1333,#1334)) REPRESENTATION_CONTEXT
('Context #1','3D Context with UNIT and UNCERTAINTY') );
#1332 = ( LENGTH_UNIT() NAMED_UNIT(*) SI_UNIT(.MILLI.,.METRE.) );
#1333 = ( NAMED_UNIT(*) PLANE_ANGLE_UNIT() SI_UNIT($,.RADIAN.) );
#1334 = ( NAMED_UNIT(*) SI_UNIT($,.STERADIAN.) SOLID_ANGLE_UNIT() );
#1335 = UNCERTAINTY_MEASURE_WITH_UNIT(LENGTH_MEASURE(1.E-07),#1332,
  'distance_accuracy_value','confusion accuracy');
#1336 = SHAPE_DEFINITION_REPRESENTATION(#1337,#1238);
#1337 = PRODUCT_DEFINITION_SHAPE('','',#1338);
#1338 = PRODUCT_DEFINITION('design','',#1339,#1342);
#1339 = PRODUCT_DEFINITION_FORMATION('','',#1340);
#1340 = PRODUCT('Body005','Body005','',(#1341));
#1341 = PRODUCT_CONTEXT('',#2,'mechanical');
#1342 = PRODUCT_DEFINITION_CONTEXT('part definition',#2,'design');
#1343 = CONTEXT_DEPENDENT_SHAPE_REPRESENTATION(#1344,#1346);
#1344 = ( REPRESENTATION_RELATIONSHIP('','',#1238,#10) 
REPRESENTATION_RELATIONSHIP_WITH_TRANSFORMATION(#1345) 
SHAPE_REPRESENTATION_RELATIONSHIP() );
#1345 = ITEM_DEFINED_TRANSFORMATION('','',#11,#35);
#1346 = PRODUCT_DEFINITION_SHAPE('Placement','Placement of an item',
  #1347);
#1347 = NEXT_ASSEMBLY_USAGE_OCCURRENCE('6','Body005','',#5,#1338,$);
#1348 = PRODUCT_RELATED_PRODUCT_CATEGORY('part',$,(#1340));
#1349 = ADVANCED_BREP_SHAPE_REPRESENTATION('',(#11,#1350),#1442);
#1350 = MANIFOLD_SOLID_BREP('',#1351);
#1351 = CLOSED_SHELL('',(#1352,#1385,#1418,#1430));
#1352 = ADVANCED_FACE('',(#1353),#1380,.T.);
#1353 = FACE_BOUND('',#1354,.F.);
#1354 = EDGE_LOOP('',(#1355,#1365,#1372,#1373));
#1355 = ORIENTED_EDGE('',*,*,#1356,.T.);
#1356 = EDGE_CURVE('',#1357,#1359,#1361,.T.);
#1357 = VERTEX_POINT('',#1358);
#1358 = CARTESIAN_POINT('',(3.,0.,0.));
#1359 = VERTEX_POINT('',#1360);
#1360 = CARTESIAN_POINT('',(3.,-5.,4.E-15));
#1361 = LINE('',#1362,#1363);
#1362 = CARTESIAN_POINT('',(3.,0.,0.));
#1363 = VECTOR('',#1364,1.);
#1364 = DIRECTION('',(0.,-1.,6.4E-16));
#1365 = ORIENTED_EDGE('',*,*,#1366,.T.);
#1366 = EDGE_CURVE('',#1359,#1359,#1367,.T.);
#1367 = CIRCLE('',#1368,3.);
#1368 = AXIS2_PLACEMENT_3D('',#1369,#1370,#1371);
#1369 = CARTESIAN_POINT('',(0.,-5.,8.881784197001E-16));
#1370 = DIRECTION('',(0.,-1.,2.2E-16));
#1371 = DIRECTION('',(1.,0.,0.));
#1372 = ORIENTED_EDGE('',*,*,#1356,.F.);
#1373 = ORIENTED_EDGE('',*,*,#1374,.F.);
#1374 = EDGE_CURVE('',#1357,#1357,#1375,.T.);
#1375 = CIRCLE('',#1376,3.);
#1376 = AXIS2_PLACEMENT_3D('',#1377,#1378,#1379);
#1377 = CARTESIAN_POINT('',(0.,0.,0.));
#1378 = DIRECTION('',(0.,-1.,2.2E-16));
#1379 = DIRECTION('',(1.,0.,0.));
#1380 = CYLINDRICAL_SURFACE('',#1381,3.);
#1381 = AXIS2_PLACEMENT_3D('',#1382,#1383,#1384);
#1382 = CARTESIAN_POINT('',(0.,0.,0.));
#1383 = DIRECTION('',(0.,1.,-6.7E-16));
#1384 = DIRECTION('',(1.,0.,0.));
#1385 = ADVANCED_FACE('',(#1386),#1413,.F.);
#1386 = FACE_BOUND('',#1387,.T.);
#1387 = EDGE_LOOP('',(#1388,#1398,#1405,#1406));
#1388 = ORIENTED_EDGE('',*,*,#1389,.T.);
#1389 = EDGE_CURVE('',#1390,#1392,#1394,.T.);
#1390 = VERTEX_POINT('',#1391);
#1391 = CARTESIAN_POINT('',(1.2,0.,0.));
#1392 = VERTEX_POINT('',#1393);
#1393 = CARTESIAN_POINT('',(1.2,-5.,4.E-15));
#1394 = LINE('',#1395,#1396);
#1395 = CARTESIAN_POINT('',(1.2,0.,0.));
#1396 = VECTOR('',#1397,1.);
#1397 = DIRECTION('',(0.,-1.,6.4E-16));
#1398 = ORIENTED_EDGE('',*,*,#1399,.T.);
#1399 = EDGE_CURVE('',#1392,#1392,#1400,.T.);
#1400 = CIRCLE('',#1401,1.2);
#1401 = AXIS2_PLACEMENT_3D('',#1402,#1403,#1404);
#1402 = CARTESIAN_POINT('',(0.,-5.,8.881784197001E-16));
#1403 = DIRECTION('',(0.,-1.,2.2E-16));
#1404 = DIRECTION('',(1.,0.,0.));
#1405 = ORIENTED_EDGE('',*,*,#1389,.F.);
#1406 = ORIENTED_EDGE('',*,*,#1407,.F.);
#1407 = EDGE_CURVE('',#1390,#1390,#1408,.T.);
#1408 = CIRCLE('',#1409,1.2);
#1409 = AXIS2_PLACEMENT_3D('',#1410,#1411,#1412);
#1410 = CARTESIAN_POINT('',(0.,0.,0.));
#1411 = DIRECTION('',(0.,-1.,2.2E-16));
#1412 = DIRECTION('',(1.,0.,0.));
#1413 = CYLINDRICAL_SURFACE('',#1414,1.2);
#1414 = AXIS2_PLACEMENT_3D('',#1415,#1416,#1417);
#1415 = CARTESIAN_POINT('',(0.,0.,0.));
#1416 = DIRECTION('',(0.,1.,-6.7E-16));
#1417 = DIRECTION('',(1.,0.,0.));
#1418 = ADVANCED_FACE('',(#1419,#1422),#1425,.F.);
#1419 = FACE_BOUND('',#1420,.F.);
#1420 = EDGE_LOOP('',(#1421));
#1421 = ORIENTED_EDGE('',*,*,#1374,.T.);
#1422 = FACE_BOUND('',#1423,.F.);
#1423 = EDGE_LOOP('',(#1424));
#1424 = ORIENTED_EDGE('',*,*,#1407,.F.);
#1425 = PLANE('',#1426);
#1426 = AXIS2_PLACEMENT_3D('',#1427,#1428,#1429);
#1427 = CARTESIAN_POINT('',(-1.4E-16,0.,1.E-17));
#1428 = DIRECTION('',(-0.,-1.,4.4E-16));
#1429 = DIRECTION('',(0.,-4.4E-16,-1.));
#1430 = ADVANCED_FACE('',(#1431,#1434),#1437,.T.);
#1431 = FACE_BOUND('',#1432,.T.);
#1432 = EDGE_LOOP('',(#1433));
#1433 = ORIENTED_EDGE('',*,*,#1366,.T.);
#1434 = FACE_BOUND('',#1435,.T.);
#1435 = EDGE_LOOP('',(#1436));
#1436 = ORIENTED_EDGE('',*,*,#1399,.F.);
#1437 = PLANE('',#1438);
#1438 = AXIS2_PLACEMENT_3D('',#1439,#1440,#1441);
#1439 = CARTESIAN_POINT('',(-1.4E-16,-5.,1.7763568394E-15));
#1440 = DIRECTION('',(-0.,-1.,4.4E-16));
#1441 = DIRECTION('',(0.,-4.4E-16,-1.));
#1442 = ( GEOMETRIC_REPRESENTATION_CONTEXT(3) 
GLOBAL_UNCERTAINTY_ASSIGNED_CONTEXT((#1446)) 
GLOBAL_UNIT_ASSIGNED_CONTEXT((#1443,#1444,#1445)) REPRESENTATION_CONTEXT
('Context #1','3D Context with UNIT and UNCERTAINTY') );
#1443 = ( LENGTH_UNIT() NAMED_UNIT(*) SI_UNIT(.MILLI.,.METRE.) );
#1444 = ( NAMED_UNIT(*) PLANE_ANGLE_UNIT() SI_UNIT($,.RADIAN.) );
#1445 = ( NAMED_UNIT(*) SI_UNIT($,.STERADIAN.) SOLID_ANGLE_UNIT() );
#1446 = UNCERTAINTY_MEASURE_WITH_UNIT(LENGTH_MEASURE(1.E-07),#1443,
  'distance_accuracy_value','confusion accuracy');
#1447 = SHAPE_DEFINITION_REPRESENTATION(#1448,#1349);
#1448 = PRODUCT_DEFINITION_SHAPE('','',#1449);
#1449 = PRODUCT_DEFINITION('design','',#1450,#1453);
#1450 = PRODUCT_DEFINITION_FORMATION('','',#1451);
#1451 = PRODUCT('Body006','Body006','',(#1452));
#1452 = PRODUCT_CONTEXT('',#2,'mechanical');
#1453 = PRODUCT_DEFINITION_CONTEXT('part definition',#2,'design');
#1454 = CONTEXT_DEPENDENT_SHAPE_REPRESENTATION(#1455,#1457);
#1455 = ( REPRESENTATION_RELATIONSHIP('','',#1349,#10) 
REPRESENTATION_RELATIONSHIP_WITH_TRANSFORMATION(#1456) 
SHAPE_REPRESENTATION_RELATIONSHIP() );
#1456 = ITEM_DEFINED_TRANSFORMATION('','',#11,#39);
#1457 = PRODUCT_DEFINITION_SHAPE('Placement','Placement of an item',
  #1458);
#1458 = NEXT_ASSEMBLY_USAGE_OCCURRENCE('7','Body006','',#5,#1449,$);
#1459 = PRODUCT_RELATED_PRODUCT_CATEGORY('part',$,(#1451));
#1460 = MECHANICAL_DESIGN_GEOMETRIC_PRESENTATION_REPRESENTATION('',(
    #1461),#1220);
#1461 = STYLED_ITEM('color',(#1462),#1128);
#1462 = PRESENTATION_STYLE_ASSIGNMENT((#1463,#1469));
#1463 = SURFACE_STYLE_USAGE(.BOTH.,#1464);
#1464 = SURFACE_SIDE_STYLE('',(#1465));
#1465 = SURFACE_STYLE_FILL_AREA(#1466);
#1466 = FILL_AREA_STYLE('',(#1467));
#1467 = FILL_AREA_STYLE_COLOUR('',#1468);
#1468 = COLOUR_RGB('',0.317647072818,0.368627460923,0.823529417451);
#1469 = CURVE_STYLE('',#1470,POSITIVE_LENGTH_MEASURE(0.1),#1471);
#1470 = DRAUGHTING_PRE_DEFINED_CURVE_FONT('continuous');
#1471 = COLOUR_RGB('',9.803921802644E-02,9.803921802644E-02,
  9.803921802644E-02);
#1472 = MECHANICAL_DESIGN_GEOMETRIC_PRESENTATION_REPRESENTATION('',(
    #1473),#1331);
#1473 = STYLED_ITEM('color',(#1474),#1239);
#1474 = PRESENTATION_STYLE_ASSIGNMENT((#1475,#1480));
#1475 = SURFACE_STYLE_USAGE(.BOTH.,#1476);
#1476 = SURFACE_SIDE_STYLE('',(#1477));
#1477 = SURFACE_STYLE_FILL_AREA(#1478);
#1478 = FILL_AREA_STYLE('',(#1479));
#1479 = FILL_AREA_STYLE_COLOUR('',#1468);
#1480 = CURVE_STYLE('',#1481,POSITIVE_LENGTH_MEASURE(0.1),#1471);
#1481 = DRAUGHTING_PRE_DEFINED_CURVE_FONT('continuous');
#1482 = MECHANICAL_DESIGN_GEOMETRIC_PRESENTATION_REPRESENTATION('',(
    #1483),#284);
#1483 = STYLED_ITEM('color',(#1484),#50);
#1484 = PRESENTATION_STYLE_ASSIGNMENT((#1485,#1491));
#1485 = SURFACE_STYLE_USAGE(.BOTH.,#1486);
#1486 = SURFACE_SIDE_STYLE('',(#1487));
#1487 = SURFACE_STYLE_FILL_AREA(#1488);
#1488 = FILL_AREA_STYLE('',(#1489));
#1489 = FILL_AREA_STYLE_COLOUR('',#1490);
#1490 = COLOUR_RGB('',0.906790899808,0.192962424864,0.916460501059);
#1491 = CURVE_STYLE('',#1492,POSITIVE_LENGTH_MEASURE(0.1),#1471);
#1492 = DRAUGHTING_PRE_DEFINED_CURVE_FONT('continuous');
#1493 = MECHANICAL_DESIGN_GEOMETRIC_PRESENTATION_REPRESENTATION('',(
    #1494),#1109);
#1494 = STYLED_ITEM('color',(#1495),#1017);
#1495 = PRESENTATION_STYLE_ASSIGNMENT((#1496,#1502));
#1496 = SURFACE_STYLE_USAGE(.BOTH.,#1497);
#1497 = SURFACE_SIDE_STYLE('',(#1498));
#1498 = SURFACE_STYLE_FILL_AREA(#1499);
#1499 = FILL_AREA_STYLE('',(#1500));
#1500 = FILL_AREA_STYLE_COLOUR('',#1501);
#1501 = COLOUR_RGB('',0.317087861838,0.367225558913,0.821870489342);
#1502 = CURVE_STYLE('',#1503,POSITIVE_LENGTH_MEASURE(0.1),#1471);
#1503 = DRAUGHTING_PRE_DEFINED_CURVE_FONT('continuous');
#1504 = MECHANICAL_DESIGN_GEOMETRIC_PRESENTATION_REPRESENTATION('',(
    #1505),#537);
#1505 = STYLED_ITEM('color',(#1506),#303);
#1506 = PRESENTATION_STYLE_ASSIGNMENT((#1507,#1513));
#1507 = SURFACE_STYLE_USAGE(.BOTH.,#1508);
#1508 = SURFACE_SIDE_STYLE('',(#1509));
#1509 = SURFACE_STYLE_FILL_AREA(#1510);
#1510 = FILL_AREA_STYLE('',(#1511));
#1511 = FILL_AREA_STYLE_COLOUR('',#1512);
#1512 = COLOUR_RGB('',0.905882345718,0.192156865571,0.917647049334);
#1513 = CURVE_STYLE('',#1514,POSITIVE_LENGTH_MEASURE(0.1),#1471);
#1514 = DRAUGHTING_PRE_DEFINED_CURVE_FONT('continuous');
#1515 = MECHANICAL_DESIGN_GEOMETRIC_PRESENTATION_REPRESENTATION('',(
    #1516),#1442);
#1516 = STYLED_ITEM('color',(#1517),#1350);
#1517 = PRESENTATION_STYLE_ASSIGNMENT((#1518,#1523));
#1518 = SURFACE_STYLE_USAGE(.BOTH.,#1519);
#1519 = SURFACE_SIDE_STYLE('',(#1520));
#1520 = SURFACE_STYLE_FILL_AREA(#1521);
#1521 = FILL_AREA_STYLE('',(#1522));
#1522 = FILL_AREA_STYLE_COLOUR('',#1468);
#1523 = CURVE_STYLE('',#1524,POSITIVE_LENGTH_MEASURE(0.1),#1471);
#1524 = DRAUGHTING_PRE_DEFINED_CURVE_FONT('continuous');
#1525 = MECHANICAL_DESIGN_GEOMETRIC_PRESENTATION_REPRESENTATION('',(
    #1526),#998);
#1526 = STYLED_ITEM('color',(#1527),#556);
#1527 = PRESENTATION_STYLE_ASSIGNMENT((#1528,#1534));
#1528 = SURFACE_STYLE_USAGE(.BOTH.,#1529);
#1529 = SURFACE_SIDE_STYLE('',(#1530));
#1530 = SURFACE_STYLE_FILL_AREA(#1531);
#1531 = FILL_AREA_STYLE('',(#1532));
#1532 = FILL_AREA_STYLE_COLOUR('',#1533);
#1533 = COLOUR_RGB('',9.918799280215E-02,0.649018773812,0.433997713375);
#1534 = CURVE_STYLE('',#1535,POSITIVE_LENGTH_MEASURE(0.1),#1471);
#1535 = DRAUGHTING_PRE_DEFINED_CURVE_FONT('continuous');
ENDSEC;
END-ISO-10303-21;
