solid OpenSCAD_Model
  facet normal 0.978151 0.207895 0
    outer loop
      vertex 36.5 20.5 2.5
      vertex 36.3271 21.3135 0
      vertex 36.3271 21.3135 2.5
    endloop
  endfacet
  facet normal 0.978151 0.207895 0
    outer loop
      vertex 36.3271 21.3135 0
      vertex 36.5 20.5 2.5
      vertex 36.5 20.5 0
    endloop
  endfacet
  facet normal 0.809027 0.587771 0
    outer loop
      vertex 36.3271 21.3135 2.5
      vertex 35.8383 21.9863 0
      vertex 35.8383 21.9863 2.5
    endloop
  endfacet
  facet normal 0.809027 0.587771 0
    outer loop
      vertex 35.8383 21.9863 0
      vertex 36.3271 21.3135 2.5
      vertex 36.3271 21.3135 0
    endloop
  endfacet
  facet normal -0.669098 -0.743175 0
    outer loop
      vertex -35.618 -21.6756 0
      vertex -35 -22.232 2.5
      vertex -35.618 -21.6756 2.5
    endloop
  endfacet
  facet normal -0.669098 -0.743175 -0
    outer loop
      vertex -35 -22.232 2.5
      vertex -35.618 -21.6756 0
      vertex -35 -22.232 0
    endloop
  endfacet
  facet normal 0.499941 0.866059 -0
    outer loop
      vertex 35.8383 21.9863 0
      vertex 35.118 22.4021 2.5
      vertex 35.8383 21.9863 2.5
    endloop
  endfacet
  facet normal 0.499941 0.866059 0
    outer loop
      vertex 35.118 22.4021 2.5
      vertex 35.8383 21.9863 0
      vertex 35.118 22.4021 0
    endloop
  endfacet
  facet normal -1 0 0
    outer loop
      vertex -35.9563 -20.9158 0
      vertex -35.9563 20.9158 2.5
      vertex -35.9563 20.9158 0
    endloop
  endfacet
  facet normal -1 -0 0
    outer loop
      vertex -35.9563 20.9158 2.5
      vertex -35.9563 -20.9158 0
      vertex -35.9563 -20.9158 2.5
    endloop
  endfacet
  facet normal -0.913539 -0.406752 0
    outer loop
      vertex -35.618 -21.6756 0
      vertex -35.9563 -20.9158 2.5
      vertex -35.9563 -20.9158 0
    endloop
  endfacet
  facet normal -0.913539 -0.406752 0
    outer loop
      vertex -35.9563 -20.9158 2.5
      vertex -35.618 -21.6756 0
      vertex -35.618 -21.6756 2.5
    endloop
  endfacet
  facet normal 0 0 -1
    outer loop
      vertex 34.291 -22.489 0
      vertex 36.5 -20.5 0
      vertex 36.3271 -21.3135 0
    endloop
  endfacet
  facet normal -0 0 -1
    outer loop
      vertex 36.5 -20.5 0
      vertex 34.291 -22.489 0
      vertex 36.5 20.5 0
    endloop
  endfacet
  facet normal 0 0 -1
    outer loop
      vertex 34.291 -22.489 0
      vertex 36.3271 -21.3135 0
      vertex 35.8383 -21.9863 0
    endloop
  endfacet
  facet normal 0 0 -1
    outer loop
      vertex 34.291 22.489 0
      vertex 36.5 20.5 0
      vertex 34.291 -22.489 0
    endloop
  endfacet
  facet normal 0 0 -1
    outer loop
      vertex 34.291 -22.489 0
      vertex 35.8383 -21.9863 0
      vertex 35.118 -22.4021 0
    endloop
  endfacet
  facet normal 0 0 -1
    outer loop
      vertex 36.5 20.5 0
      vertex 34.291 22.489 0
      vertex 36.3271 21.3135 0
    endloop
  endfacet
  facet normal 0 0 -1
    outer loop
      vertex 36.3271 21.3135 0
      vertex 34.291 22.489 0
      vertex 35.8383 21.9863 0
    endloop
  endfacet
  facet normal 0 0 -1
    outer loop
      vertex 35.8383 21.9863 0
      vertex 34.291 22.489 0
      vertex 35.118 22.4021 0
    endloop
  endfacet
  facet normal 0 0 -1
    outer loop
      vertex -34.209 -22.489 0
      vertex 34.291 22.489 0
      vertex 34.291 -22.489 0
    endloop
  endfacet
  facet normal 0 0 -1
    outer loop
      vertex -34.209 -22.489 0
      vertex -34.209 22.489 0
      vertex 34.291 22.489 0
    endloop
  endfacet
  facet normal 0 0 -1
    outer loop
      vertex -35.9563 -20.9158 0
      vertex -34.209 -22.489 0
      vertex -35 -22.232 0
    endloop
  endfacet
  facet normal 0 0 -1
    outer loop
      vertex -34.209 -22.489 0
      vertex -35.9563 -20.9158 0
      vertex -34.209 22.489 0
    endloop
  endfacet
  facet normal 0 0 -1
    outer loop
      vertex -35.9563 -20.9158 0
      vertex -35 -22.232 0
      vertex -35.618 -21.6756 0
    endloop
  endfacet
  facet normal 0 0 -1
    outer loop
      vertex -35.9563 20.9158 0
      vertex -34.209 22.489 0
      vertex -35.9563 -20.9158 0
    endloop
  endfacet
  facet normal 0 0 -1
    outer loop
      vertex -34.209 22.489 0
      vertex -35.9563 20.9158 0
      vertex -35 22.232 0
    endloop
  endfacet
  facet normal 0 0 -1
    outer loop
      vertex -35 22.232 0
      vertex -35.9563 20.9158 0
      vertex -35.618 21.6756 0
    endloop
  endfacet
  facet normal 0 0 1
    outer loop
      vertex 34.291 22.489 2.5
      vertex 36.5 20.5 2.5
      vertex 36.3271 21.3135 2.5
    endloop
  endfacet
  facet normal 0 0 1
    outer loop
      vertex 36.5 20.5 2.5
      vertex 2.41667 0 2.5
      vertex 36.5 -20.5 2.5
    endloop
  endfacet
  facet normal 0 0 1
    outer loop
      vertex 34.291 22.489 2.5
      vertex 36.3271 21.3135 2.5
      vertex 35.8383 21.9863 2.5
    endloop
  endfacet
  facet normal 0 0 1
    outer loop
      vertex 36.5 20.5 2.5
      vertex 34.291 22.489 2.5
      vertex 2.36386 0.502453 2.5
    endloop
  endfacet
  facet normal 0 0 1
    outer loop
      vertex 34.291 22.489 2.5
      vertex 35.8383 21.9863 2.5
      vertex 35.118 22.4021 2.5
    endloop
  endfacet
  facet normal -0 0 1
    outer loop
      vertex 2.36386 -0.502453 2.5
      vertex 36.5 -20.5 2.5
      vertex 2.41667 0 2.5
    endloop
  endfacet
  facet normal 0 0 1
    outer loop
      vertex 36.3271 -21.3135 2.5
      vertex 34.291 -22.489 2.5
      vertex 35.8383 -21.9863 2.5
    endloop
  endfacet
  facet normal 0 0 1
    outer loop
      vertex 35.8383 -21.9863 2.5
      vertex 34.291 -22.489 2.5
      vertex 35.118 -22.4021 2.5
    endloop
  endfacet
  facet normal 0 -0 1
    outer loop
      vertex 34.291 -22.489 2.5
      vertex 36.5 -20.5 2.5
      vertex 2.36386 -0.502453 2.5
    endloop
  endfacet
  facet normal 0 0 1
    outer loop
      vertex 36.5 20.5 2.5
      vertex 2.36386 0.502453 2.5
      vertex 2.41667 0 2.5
    endloop
  endfacet
  facet normal 0 0 1
    outer loop
      vertex 34.291 22.489 2.5
      vertex 2.31002 0.66814 2.5
      vertex 2.36386 0.502453 2.5
    endloop
  endfacet
  facet normal 0 0 1
    outer loop
      vertex 34.291 22.489 2.5
      vertex 2.20773 0.982946 2.5
      vertex 2.31002 0.66814 2.5
    endloop
  endfacet
  facet normal 0 0 1
    outer loop
      vertex 34.291 22.489 2.5
      vertex 2.04223 1.26961 2.5
      vertex 2.20773 0.982946 2.5
    endloop
  endfacet
  facet normal 0 0 1
    outer loop
      vertex 34.291 22.489 2.5
      vertex 1.95512 1.42048 2.5
      vertex 2.04223 1.26961 2.5
    endloop
  endfacet
  facet normal 0 0 1
    outer loop
      vertex 34.291 22.489 2.5
      vertex 1.83855 1.54995 2.5
      vertex 1.95512 1.42048 2.5
    endloop
  endfacet
  facet normal 0 0 1
    outer loop
      vertex 34.291 22.489 2.5
      vertex 1.61707 1.79593 2.5
      vertex 1.83855 1.54995 2.5
    endloop
  endfacet
  facet normal 0 0 1
    outer loop
      vertex 34.291 22.489 2.5
      vertex 1.34928 1.99049 2.5
      vertex 1.61707 1.79593 2.5
    endloop
  endfacet
  facet normal 0 0 1
    outer loop
      vertex 34.291 22.489 2.5
      vertex 1.20833 2.09289 2.5
      vertex 1.34928 1.99049 2.5
    endloop
  endfacet
  facet normal 0 0 1
    outer loop
      vertex 34.291 22.489 2.5
      vertex 0.905943 2.22753 2.5
      vertex 1.20833 2.09289 2.5
    endloop
  endfacet
  facet normal 0 0 1
    outer loop
      vertex 34.291 22.489 2.5
      vertex 0.746791 2.29839 2.5
      vertex 0.905943 2.22753 2.5
    endloop
  endfacet
  facet normal 0 0 1
    outer loop
      vertex 34.291 22.489 2.5
      vertex 0.576383 2.33461 2.5
      vertex 0.746791 2.29839 2.5
    endloop
  endfacet
  facet normal 0 0 1
    outer loop
      vertex 34.291 22.489 2.5
      vertex 0.25261 2.40343 2.5
      vertex 0.576383 2.33461 2.5
    endloop
  endfacet
  facet normal 0 0 1
    outer loop
      vertex 34.291 22.489 2.5
      vertex -0.25261 2.40343 2.5
      vertex 0.25261 2.40343 2.5
    endloop
  endfacet
  facet normal -0 0 1
    outer loop
      vertex -34.209 22.489 2.5
      vertex -0.25261 2.40343 2.5
      vertex 34.291 22.489 2.5
    endloop
  endfacet
  facet normal 0 0 1
    outer loop
      vertex -0.25261 2.40343 2.5
      vertex -34.209 22.489 2.5
      vertex -0.576383 2.33461 2.5
    endloop
  endfacet
  facet normal 0 0 1
    outer loop
      vertex -0.576383 2.33461 2.5
      vertex -34.209 22.489 2.5
      vertex -0.746791 2.29839 2.5
    endloop
  endfacet
  facet normal 0 0 1
    outer loop
      vertex -0.746791 2.29839 2.5
      vertex -34.209 22.489 2.5
      vertex -0.905943 2.22753 2.5
    endloop
  endfacet
  facet normal -0 0 1
    outer loop
      vertex -35.9563 20.9158 2.5
      vertex -2.36386 0.502453 2.5
      vertex -34.209 22.489 2.5
    endloop
  endfacet
  facet normal 0 0 1
    outer loop
      vertex -2.31002 0.66814 2.5
      vertex -34.209 22.489 2.5
      vertex -2.36386 0.502453 2.5
    endloop
  endfacet
  facet normal 0 0 1
    outer loop
      vertex -2.20773 0.982946 2.5
      vertex -34.209 22.489 2.5
      vertex -2.31002 0.66814 2.5
    endloop
  endfacet
  facet normal 0 0 1
    outer loop
      vertex -2.04223 1.26961 2.5
      vertex -34.209 22.489 2.5
      vertex -2.20773 0.982946 2.5
    endloop
  endfacet
  facet normal 0 0 1
    outer loop
      vertex -1.95512 1.42048 2.5
      vertex -34.209 22.489 2.5
      vertex -2.04223 1.26961 2.5
    endloop
  endfacet
  facet normal 0 0 1
    outer loop
      vertex -1.83855 1.54995 2.5
      vertex -34.209 22.489 2.5
      vertex -1.95512 1.42048 2.5
    endloop
  endfacet
  facet normal 0 0 1
    outer loop
      vertex -1.61707 1.79593 2.5
      vertex -34.209 22.489 2.5
      vertex -1.83855 1.54995 2.5
    endloop
  endfacet
  facet normal 0 0 1
    outer loop
      vertex -1.34928 1.99049 2.5
      vertex -34.209 22.489 2.5
      vertex -1.61707 1.79593 2.5
    endloop
  endfacet
  facet normal 0 0 1
    outer loop
      vertex -1.20833 2.09289 2.5
      vertex -34.209 22.489 2.5
      vertex -1.34928 1.99049 2.5
    endloop
  endfacet
  facet normal 0 0 1
    outer loop
      vertex -0.905943 2.22753 2.5
      vertex -34.209 22.489 2.5
      vertex -1.20833 2.09289 2.5
    endloop
  endfacet
  facet normal 0 0 1
    outer loop
      vertex 36.5 -20.5 2.5
      vertex 34.291 -22.489 2.5
      vertex 36.3271 -21.3135 2.5
    endloop
  endfacet
  facet normal -0 0 1
    outer loop
      vertex 2.31002 -0.66814 2.5
      vertex 34.291 -22.489 2.5
      vertex 2.36386 -0.502453 2.5
    endloop
  endfacet
  facet normal -0 0 1
    outer loop
      vertex 2.20773 -0.982946 2.5
      vertex 34.291 -22.489 2.5
      vertex 2.31002 -0.66814 2.5
    endloop
  endfacet
  facet normal -0 0 1
    outer loop
      vertex 2.04223 -1.26961 2.5
      vertex 34.291 -22.489 2.5
      vertex 2.20773 -0.982946 2.5
    endloop
  endfacet
  facet normal -0 0 1
    outer loop
      vertex 1.95512 -1.42048 2.5
      vertex 34.291 -22.489 2.5
      vertex 2.04223 -1.26961 2.5
    endloop
  endfacet
  facet normal -0 0 1
    outer loop
      vertex 1.83855 -1.54995 2.5
      vertex 34.291 -22.489 2.5
      vertex 1.95512 -1.42048 2.5
    endloop
  endfacet
  facet normal -0 0 1
    outer loop
      vertex 1.61707 -1.79593 2.5
      vertex 34.291 -22.489 2.5
      vertex 1.83855 -1.54995 2.5
    endloop
  endfacet
  facet normal -0 0 1
    outer loop
      vertex 1.34928 -1.99049 2.5
      vertex 34.291 -22.489 2.5
      vertex 1.61707 -1.79593 2.5
    endloop
  endfacet
  facet normal -0 0 1
    outer loop
      vertex 1.20833 -2.09289 2.5
      vertex 34.291 -22.489 2.5
      vertex 1.34928 -1.99049 2.5
    endloop
  endfacet
  facet normal -0 0 1
    outer loop
      vertex 0.905943 -2.22753 2.5
      vertex 34.291 -22.489 2.5
      vertex 1.20833 -2.09289 2.5
    endloop
  endfacet
  facet normal -0 0 1
    outer loop
      vertex 0.746791 -2.29839 2.5
      vertex 34.291 -22.489 2.5
      vertex 0.905943 -2.22753 2.5
    endloop
  endfacet
  facet normal -0 0 1
    outer loop
      vertex 0.576383 -2.33461 2.5
      vertex 34.291 -22.489 2.5
      vertex 0.746791 -2.29839 2.5
    endloop
  endfacet
  facet normal -0 0 1
    outer loop
      vertex 0.25261 -2.40343 2.5
      vertex 34.291 -22.489 2.5
      vertex 0.576383 -2.33461 2.5
    endloop
  endfacet
  facet normal -0 0 1
    outer loop
      vertex -0.25261 -2.40343 2.5
      vertex 34.291 -22.489 2.5
      vertex 0.25261 -2.40343 2.5
    endloop
  endfacet
  facet normal 0 0 1
    outer loop
      vertex -34.209 -22.489 2.5
      vertex -0.25261 -2.40343 2.5
      vertex -0.576383 -2.33461 2.5
    endloop
  endfacet
  facet normal 0 0 1
    outer loop
      vertex -34.209 -22.489 2.5
      vertex -0.576383 -2.33461 2.5
      vertex -0.746791 -2.29839 2.5
    endloop
  endfacet
  facet normal 0 0 1
    outer loop
      vertex -34.209 -22.489 2.5
      vertex -0.746791 -2.29839 2.5
      vertex -0.905943 -2.22753 2.5
    endloop
  endfacet
  facet normal 0 0 1
    outer loop
      vertex -34.209 -22.489 2.5
      vertex -0.905943 -2.22753 2.5
      vertex -1.20833 -2.09289 2.5
    endloop
  endfacet
  facet normal 0 0 1
    outer loop
      vertex -2.36386 0.502453 2.5
      vertex -35.9563 20.9158 2.5
      vertex -2.41667 0 2.5
    endloop
  endfacet
  facet normal 0 0 1
    outer loop
      vertex -35.9563 -20.9158 2.5
      vertex -2.41667 0 2.5
      vertex -35.9563 20.9158 2.5
    endloop
  endfacet
  facet normal 0 0 1
    outer loop
      vertex -2.41667 0 2.5
      vertex -35.9563 -20.9158 2.5
      vertex -2.36386 -0.502453 2.5
    endloop
  endfacet
  facet normal 0 0 1
    outer loop
      vertex -2.36386 -0.502453 2.5
      vertex -35.9563 -20.9158 2.5
      vertex -2.31002 -0.66814 2.5
    endloop
  endfacet
  facet normal 0 -0 1
    outer loop
      vertex -34.209 -22.489 2.5
      vertex -2.31002 -0.66814 2.5
      vertex -35.9563 -20.9158 2.5
    endloop
  endfacet
  facet normal 0 0 1
    outer loop
      vertex -2.31002 -0.66814 2.5
      vertex -34.209 -22.489 2.5
      vertex -2.20773 -0.982946 2.5
    endloop
  endfacet
  facet normal 0 0 1
    outer loop
      vertex -2.20773 -0.982946 2.5
      vertex -34.209 -22.489 2.5
      vertex -2.04223 -1.26961 2.5
    endloop
  endfacet
  facet normal 0 0 1
    outer loop
      vertex -0.25261 -2.40343 2.5
      vertex -34.209 -22.489 2.5
      vertex 34.291 -22.489 2.5
    endloop
  endfacet
  facet normal 0 0 1
    outer loop
      vertex -1.34928 -1.99049 2.5
      vertex -34.209 -22.489 2.5
      vertex -1.20833 -2.09289 2.5
    endloop
  endfacet
  facet normal 0 0 1
    outer loop
      vertex -1.61707 -1.79593 2.5
      vertex -34.209 -22.489 2.5
      vertex -1.34928 -1.99049 2.5
    endloop
  endfacet
  facet normal 0 0 1
    outer loop
      vertex -2.04223 -1.26961 2.5
      vertex -34.209 -22.489 2.5
      vertex -1.95512 -1.42048 2.5
    endloop
  endfacet
  facet normal 0 0 1
    outer loop
      vertex -35.9563 20.9158 2.5
      vertex -34.209 22.489 2.5
      vertex -35 22.232 2.5
    endloop
  endfacet
  facet normal 0 0 1
    outer loop
      vertex -1.95512 -1.42048 2.5
      vertex -34.209 -22.489 2.5
      vertex -1.83855 -1.54995 2.5
    endloop
  endfacet
  facet normal 0 0 1
    outer loop
      vertex -35.9563 20.9158 2.5
      vertex -35 22.232 2.5
      vertex -35.618 21.6756 2.5
    endloop
  endfacet
  facet normal 0 0 1
    outer loop
      vertex -1.83855 -1.54995 2.5
      vertex -34.209 -22.489 2.5
      vertex -1.61707 -1.79593 2.5
    endloop
  endfacet
  facet normal 0 0 1
    outer loop
      vertex -34.209 -22.489 2.5
      vertex -35.9563 -20.9158 2.5
      vertex -35 -22.232 2.5
    endloop
  endfacet
  facet normal 0 0 1
    outer loop
      vertex -35 -22.232 2.5
      vertex -35.9563 -20.9158 2.5
      vertex -35.618 -21.6756 2.5
    endloop
  endfacet
  facet normal 0.104503 -0.994525 0
    outer loop
      vertex 34.291 -22.489 0
      vertex 35.118 -22.4021 2.5
      vertex 34.291 -22.489 2.5
    endloop
  endfacet
  facet normal 0.104503 -0.994525 0
    outer loop
      vertex 35.118 -22.4021 2.5
      vertex 34.291 -22.489 0
      vertex 35.118 -22.4021 0
    endloop
  endfacet
  facet normal 0 -1 0
    outer loop
      vertex -34.209 -22.489 0
      vertex 34.291 -22.489 2.5
      vertex -34.209 -22.489 2.5
    endloop
  endfacet
  facet normal 0 -1 -0
    outer loop
      vertex 34.291 -22.489 2.5
      vertex -34.209 -22.489 0
      vertex 34.291 -22.489 0
    endloop
  endfacet
  facet normal -0.309005 -0.951061 0
    outer loop
      vertex -35 -22.232 0
      vertex -34.209 -22.489 2.5
      vertex -35 -22.232 2.5
    endloop
  endfacet
  facet normal -0.309005 -0.951061 -0
    outer loop
      vertex -34.209 -22.489 2.5
      vertex -35 -22.232 0
      vertex -34.209 -22.489 0
    endloop
  endfacet
  facet normal 0.978151 -0.207895 0
    outer loop
      vertex 36.3271 -21.3135 2.5
      vertex 36.5 -20.5 0
      vertex 36.5 -20.5 2.5
    endloop
  endfacet
  facet normal 0.978151 -0.207895 0
    outer loop
      vertex 36.5 -20.5 0
      vertex 36.3271 -21.3135 2.5
      vertex 36.3271 -21.3135 0
    endloop
  endfacet
  facet normal 0.809027 -0.587771 0
    outer loop
      vertex 35.8383 -21.9863 2.5
      vertex 36.3271 -21.3135 0
      vertex 36.3271 -21.3135 2.5
    endloop
  endfacet
  facet normal 0.809027 -0.587771 0
    outer loop
      vertex 36.3271 -21.3135 0
      vertex 35.8383 -21.9863 2.5
      vertex 35.8383 -21.9863 0
    endloop
  endfacet
  facet normal 1 -0 0
    outer loop
      vertex 36.5 -20.5 2.5
      vertex 36.5 20.5 0
      vertex 36.5 20.5 2.5
    endloop
  endfacet
  facet normal 1 0 0
    outer loop
      vertex 36.5 20.5 0
      vertex 36.5 -20.5 2.5
      vertex 36.5 -20.5 0
    endloop
  endfacet
  facet normal -0.309005 0.951061 0
    outer loop
      vertex -34.209 22.489 0
      vertex -35 22.232 2.5
      vertex -34.209 22.489 2.5
    endloop
  endfacet
  facet normal -0.309005 0.951061 0
    outer loop
      vertex -35 22.232 2.5
      vertex -34.209 22.489 0
      vertex -35 22.232 0
    endloop
  endfacet
  facet normal 0 1 -0
    outer loop
      vertex 34.291 22.489 0
      vertex -34.209 22.489 2.5
      vertex 34.291 22.489 2.5
    endloop
  endfacet
  facet normal 0 1 0
    outer loop
      vertex -34.209 22.489 2.5
      vertex 34.291 22.489 0
      vertex -34.209 22.489 0
    endloop
  endfacet
  facet normal 0.104503 0.994525 -0
    outer loop
      vertex 35.118 22.4021 0
      vertex 34.291 22.489 2.5
      vertex 35.118 22.4021 2.5
    endloop
  endfacet
  facet normal 0.104503 0.994525 0
    outer loop
      vertex 34.291 22.489 2.5
      vertex 35.118 22.4021 0
      vertex 34.291 22.489 0
    endloop
  endfacet
  facet normal 0.499941 -0.866059 0
    outer loop
      vertex 35.118 -22.4021 0
      vertex 35.8383 -21.9863 2.5
      vertex 35.118 -22.4021 2.5
    endloop
  endfacet
  facet normal 0.499941 -0.866059 0
    outer loop
      vertex 35.8383 -21.9863 2.5
      vertex 35.118 -22.4021 0
      vertex 35.8383 -21.9863 0
    endloop
  endfacet
  facet normal -0.913539 0.406752 0
    outer loop
      vertex -35.9563 20.9158 0
      vertex -35.618 21.6756 2.5
      vertex -35.618 21.6756 0
    endloop
  endfacet
  facet normal -0.913539 0.406752 0
    outer loop
      vertex -35.618 21.6756 2.5
      vertex -35.9563 20.9158 0
      vertex -35.9563 20.9158 2.5
    endloop
  endfacet
  facet normal -0.669098 0.743175 0
    outer loop
      vertex -35 22.232 0
      vertex -35.618 21.6756 2.5
      vertex -35 22.232 2.5
    endloop
  endfacet
  facet normal -0.669098 0.743175 0
    outer loop
      vertex -35.618 21.6756 2.5
      vertex -35 22.232 0
      vertex -35.618 21.6756 0
    endloop
  endfacet
  facet normal 0 0 1
    outer loop
      vertex 3.91259 0.831646 12
      vertex 3.91259 -0.831646 12
      vertex 4 0 12
    endloop
  endfacet
  facet normal 0 0 1
    outer loop
      vertex 3.65418 1.62695 12
      vertex 3.91259 -0.831646 12
      vertex 3.91259 0.831646 12
    endloop
  endfacet
  facet normal 0 0 1
    outer loop
      vertex 3.65418 1.62695 12
      vertex 3.65418 -1.62695 12
      vertex 3.91259 -0.831646 12
    endloop
  endfacet
  facet normal 0 0 1
    outer loop
      vertex 3.23607 2.35114 12
      vertex 3.65418 -1.62695 12
      vertex 3.65418 1.62695 12
    endloop
  endfacet
  facet normal 0 0 1
    outer loop
      vertex 3.23607 2.35114 12
      vertex 3.23607 -2.35114 12
      vertex 3.65418 -1.62695 12
    endloop
  endfacet
  facet normal 0 0 1
    outer loop
      vertex 2.67652 2.97258 12
      vertex 3.23607 -2.35114 12
      vertex 3.23607 2.35114 12
    endloop
  endfacet
  facet normal 0 0 1
    outer loop
      vertex 2.67652 2.97258 12
      vertex 2.67652 -2.97258 12
      vertex 3.23607 -2.35114 12
    endloop
  endfacet
  facet normal 0 0 1
    outer loop
      vertex 2 3.4641 12
      vertex 2.67652 -2.97258 12
      vertex 2.67652 2.97258 12
    endloop
  endfacet
  facet normal 0 0 1
    outer loop
      vertex 2 3.4641 12
      vertex 2 -3.4641 12
      vertex 2.67652 -2.97258 12
    endloop
  endfacet
  facet normal 0 0 1
    outer loop
      vertex 1.23607 3.80423 12
      vertex 2 -3.4641 12
      vertex 2 3.4641 12
    endloop
  endfacet
  facet normal 0 0 1
    outer loop
      vertex 1.23607 3.80423 12
      vertex 1.23607 -3.80423 12
      vertex 2 -3.4641 12
    endloop
  endfacet
  facet normal 0 0 1
    outer loop
      vertex 0.418114 3.97809 12
      vertex 1.23607 -3.80423 12
      vertex 1.23607 3.80423 12
    endloop
  endfacet
  facet normal 0 0 1
    outer loop
      vertex 0.418114 3.97809 12
      vertex 0.418114 -3.97809 12
      vertex 1.23607 -3.80423 12
    endloop
  endfacet
  facet normal -0 0 1
    outer loop
      vertex -0.418114 3.97809 12
      vertex 0.418114 -3.97809 12
      vertex 0.418114 3.97809 12
    endloop
  endfacet
  facet normal 0 0 1
    outer loop
      vertex -0.418114 3.97809 12
      vertex -0.418114 -3.97809 12
      vertex 0.418114 -3.97809 12
    endloop
  endfacet
  facet normal -0 0 1
    outer loop
      vertex -1.23607 3.80423 12
      vertex -0.418114 -3.97809 12
      vertex -0.418114 3.97809 12
    endloop
  endfacet
  facet normal 0 0 1
    outer loop
      vertex -1.23607 3.80423 12
      vertex -1.23607 -3.80423 12
      vertex -0.418114 -3.97809 12
    endloop
  endfacet
  facet normal -0 0 1
    outer loop
      vertex -2 3.4641 12
      vertex -1.23607 -3.80423 12
      vertex -1.23607 3.80423 12
    endloop
  endfacet
  facet normal 0 0 1
    outer loop
      vertex -2 3.4641 12
      vertex -2 -3.4641 12
      vertex -1.23607 -3.80423 12
    endloop
  endfacet
  facet normal -0 0 1
    outer loop
      vertex -2.67652 2.97258 12
      vertex -2 -3.4641 12
      vertex -2 3.4641 12
    endloop
  endfacet
  facet normal 0 0 1
    outer loop
      vertex -2.67652 2.97258 12
      vertex -2.67652 -2.97258 12
      vertex -2 -3.4641 12
    endloop
  endfacet
  facet normal -0 0 1
    outer loop
      vertex -3.23607 2.35114 12
      vertex -2.67652 -2.97258 12
      vertex -2.67652 2.97258 12
    endloop
  endfacet
  facet normal 0 0 1
    outer loop
      vertex -3.23607 2.35114 12
      vertex -3.23607 -2.35114 12
      vertex -2.67652 -2.97258 12
    endloop
  endfacet
  facet normal -0 0 1
    outer loop
      vertex -3.65418 1.62695 12
      vertex -3.23607 -2.35114 12
      vertex -3.23607 2.35114 12
    endloop
  endfacet
  facet normal 0 0 1
    outer loop
      vertex -3.65418 1.62695 12
      vertex -3.65418 -1.62695 12
      vertex -3.23607 -2.35114 12
    endloop
  endfacet
  facet normal -0 0 1
    outer loop
      vertex -3.91259 0.831646 12
      vertex -3.65418 -1.62695 12
      vertex -3.65418 1.62695 12
    endloop
  endfacet
  facet normal 0 0 1
    outer loop
      vertex -3.91259 0.831646 12
      vertex -3.91259 -0.831646 12
      vertex -3.65418 -1.62695 12
    endloop
  endfacet
  facet normal 0 -0 1
    outer loop
      vertex -3.91259 -0.831646 12
      vertex -3.91259 0.831646 12
      vertex -4 0 12
    endloop
  endfacet
  facet normal -0.981135 -0.103122 -0.163522
    outer loop
      vertex -2.36386 -0.502453 2.5
      vertex -4 0 12
      vertex -2.41667 0 2.5
    endloop
  endfacet
  facet normal -0.981135 -0.103122 -0.163522
    outer loop
      vertex -4 0 12
      vertex -2.36386 -0.502453 2.5
      vertex -3.91259 -0.831646 12
    endloop
  endfacet
  facet normal -0.981135 0.103122 -0.163522
    outer loop
      vertex -4 0 12
      vertex -2.36386 0.502453 2.5
      vertex -2.41667 0 2.5
    endloop
  endfacet
  facet normal -0.981135 0.103122 -0.163522
    outer loop
      vertex -2.36386 0.502453 2.5
      vertex -4 0 12
      vertex -3.91259 0.831646 12
    endloop
  endfacet
  facet normal -0.938255 0.304858 -0.163523
    outer loop
      vertex -2.31002 0.66814 2.5
      vertex -3.91259 0.831646 12
      vertex -3.65418 1.62695 12
    endloop
  endfacet
  facet normal -0.938247 0.304883 -0.163522
    outer loop
      vertex -3.91259 0.831646 12
      vertex -2.31002 0.66814 2.5
      vertex -2.36386 0.502453 2.5
    endloop
  endfacet
  facet normal -0.205111 -0.964982 -0.163523
    outer loop
      vertex -0.746791 -2.29839 2.5
      vertex -0.418114 -3.97809 12
      vertex -1.23607 -3.80423 12
    endloop
  endfacet
  facet normal -0.205106 -0.964983 -0.163523
    outer loop
      vertex -0.418114 -3.97809 12
      vertex -0.746791 -2.29839 2.5
      vertex -0.576383 -2.33461 2.5
    endloop
  endfacet
  facet normal -0.854369 0.493269 -0.163523
    outer loop
      vertex -1.95512 1.42048 2.5
      vertex -3.65418 1.62695 12
      vertex -3.23607 2.35114 12
    endloop
  endfacet
  facet normal -0.854356 0.493292 -0.163521
    outer loop
      vertex -3.65418 1.62695 12
      vertex -1.95512 1.42048 2.5
      vertex -2.04223 1.26961 2.5
    endloop
  endfacet
  facet normal 0 0.98654 -0.163523
    outer loop
      vertex 0.25261 2.40343 2.5
      vertex -0.418114 3.97809 12
      vertex 0.418114 3.97809 12
    endloop
  endfacet
  facet normal 0 0.98654 -0.163523
    outer loop
      vertex -0.418114 3.97809 12
      vertex 0.25261 2.40343 2.5
      vertex -0.25261 2.40343 2.5
    endloop
  endfacet
  facet normal -0.733144 -0.660122 -0.163522
    outer loop
      vertex -1.61707 -1.79593 2.5
      vertex -2.67652 -2.97258 12
      vertex -1.83855 -1.54995 2.5
    endloop
  endfacet
  facet normal -0.73314 0.660126 -0.163523
    outer loop
      vertex -1.83855 1.54995 2.5
      vertex -3.23607 2.35114 12
      vertex -2.67652 2.97258 12
    endloop
  endfacet
  facet normal -0.733157 0.660107 -0.163523
    outer loop
      vertex -3.23607 2.35114 12
      vertex -1.83855 1.54995 2.5
      vertex -1.95512 1.42048 2.5
    endloop
  endfacet
  facet normal -0.854375 0.493257 -0.163523
    outer loop
      vertex -2.20773 0.982946 2.5
      vertex -3.65418 1.62695 12
      vertex -2.04223 1.26961 2.5
    endloop
  endfacet
  facet normal -0.938252 -0.304866 -0.163523
    outer loop
      vertex -2.20773 -0.982946 2.5
      vertex -3.65418 -1.62695 12
      vertex -2.31002 -0.66814 2.5
    endloop
  endfacet
  facet normal 0.205106 -0.964983 -0.163523
    outer loop
      vertex 0.746791 -2.29839 2.5
      vertex 0.418114 -3.97809 12
      vertex 0.576383 -2.33461 2.5
    endloop
  endfacet
  facet normal 0.205111 -0.964982 -0.163523
    outer loop
      vertex 0.418114 -3.97809 12
      vertex 0.746791 -2.29839 2.5
      vertex 1.23607 -3.80423 12
    endloop
  endfacet
  facet normal -0.205106 0.964983 -0.163523
    outer loop
      vertex -0.746791 2.29839 2.5
      vertex -0.418114 3.97809 12
      vertex -0.576383 2.33461 2.5
    endloop
  endfacet
  facet normal -0.205111 0.964982 -0.163523
    outer loop
      vertex -0.418114 3.97809 12
      vertex -0.746791 2.29839 2.5
      vertex -1.23607 3.80423 12
    endloop
  endfacet
  facet normal -0.938247 -0.304883 -0.163522
    outer loop
      vertex -2.31002 -0.66814 2.5
      vertex -3.91259 -0.831646 12
      vertex -2.36386 -0.502453 2.5
    endloop
  endfacet
  facet normal -0.938255 -0.304858 -0.163523
    outer loop
      vertex -3.91259 -0.831646 12
      vertex -2.31002 -0.66814 2.5
      vertex -3.65418 -1.62695 12
    endloop
  endfacet
  facet normal -0.579873 -0.798128 -0.163523
    outer loop
      vertex -1.34928 -1.99049 2.5
      vertex -2 -3.4641 12
      vertex -2.67652 -2.97258 12
    endloop
  endfacet
  facet normal -0.57985 -0.798144 -0.163523
    outer loop
      vertex -2 -3.4641 12
      vertex -1.34928 -1.99049 2.5
      vertex -1.20833 -2.09289 2.5
    endloop
  endfacet
  facet normal -0.401283 -0.901239 -0.163523
    outer loop
      vertex -0.905943 -2.22753 2.5
      vertex -2 -3.4641 12
      vertex -1.20833 -2.09289 2.5
    endloop
  endfacet
  facet normal -0.854356 -0.493292 -0.163521
    outer loop
      vertex -1.95512 -1.42048 2.5
      vertex -3.65418 -1.62695 12
      vertex -2.04223 -1.26961 2.5
    endloop
  endfacet
  facet normal -0.854369 -0.493269 -0.163523
    outer loop
      vertex -3.65418 -1.62695 12
      vertex -1.95512 -1.42048 2.5
      vertex -3.23607 -2.35114 12
    endloop
  endfacet
  facet normal -0.733157 -0.660107 -0.163523
    outer loop
      vertex -1.83855 -1.54995 2.5
      vertex -3.23607 -2.35114 12
      vertex -1.95512 -1.42048 2.5
    endloop
  endfacet
  facet normal -0.73314 -0.660126 -0.163523
    outer loop
      vertex -3.23607 -2.35114 12
      vertex -1.83855 -1.54995 2.5
      vertex -2.67652 -2.97258 12
    endloop
  endfacet
  facet normal 0.205113 -0.964981 -0.163523
    outer loop
      vertex 0.418114 -3.97809 12
      vertex 0.25261 -2.40343 2.5
      vertex 0.576383 -2.33461 2.5
    endloop
  endfacet
  facet normal 0 -0.98654 -0.163523
    outer loop
      vertex -0.25261 -2.40343 2.5
      vertex 0.418114 -3.97809 12
      vertex -0.418114 -3.97809 12
    endloop
  endfacet
  facet normal 0 -0.98654 -0.163523
    outer loop
      vertex 0.418114 -3.97809 12
      vertex -0.25261 -2.40343 2.5
      vertex 0.25261 -2.40343 2.5
    endloop
  endfacet
  facet normal -0.579872 0.798128 -0.163522
    outer loop
      vertex -1.61707 1.79593 2.5
      vertex -2.67652 2.97258 12
      vertex -1.34928 1.99049 2.5
    endloop
  endfacet
  facet normal 0.733144 0.660122 -0.163522
    outer loop
      vertex 1.83855 1.54995 2.5
      vertex 1.61707 1.79593 2.5
      vertex 2.67652 2.97258 12
    endloop
  endfacet
  facet normal 0.401283 0.901239 -0.163523
    outer loop
      vertex 1.20833 2.09289 2.5
      vertex 0.905943 2.22753 2.5
      vertex 2 3.4641 12
    endloop
  endfacet
  facet normal 0.205113 0.964981 -0.163523
    outer loop
      vertex 0.576383 2.33461 2.5
      vertex 0.25261 2.40343 2.5
      vertex 0.418114 3.97809 12
    endloop
  endfacet
  facet normal -0.854375 -0.493257 -0.163523
    outer loop
      vertex -2.04223 -1.26961 2.5
      vertex -3.65418 -1.62695 12
      vertex -2.20773 -0.982946 2.5
    endloop
  endfacet
  facet normal -0.579872 -0.798128 -0.163522
    outer loop
      vertex -1.34928 -1.99049 2.5
      vertex -2.67652 -2.97258 12
      vertex -1.61707 -1.79593 2.5
    endloop
  endfacet
  facet normal -0.401268 -0.901246 -0.163523
    outer loop
      vertex -0.905943 -2.22753 2.5
      vertex -1.23607 -3.80423 12
      vertex -2 -3.4641 12
    endloop
  endfacet
  facet normal -0.401266 -0.901247 -0.163523
    outer loop
      vertex -1.23607 -3.80423 12
      vertex -0.905943 -2.22753 2.5
      vertex -0.746791 -2.29839 2.5
    endloop
  endfacet
  facet normal 0.401283 -0.901239 -0.163523
    outer loop
      vertex 2 -3.4641 12
      vertex 0.905943 -2.22753 2.5
      vertex 1.20833 -2.09289 2.5
    endloop
  endfacet
  facet normal 0.733157 -0.660107 -0.163523
    outer loop
      vertex 3.23607 -2.35114 12
      vertex 1.83855 -1.54995 2.5
      vertex 1.95512 -1.42048 2.5
    endloop
  endfacet
  facet normal 0.73314 -0.660126 -0.163523
    outer loop
      vertex 1.83855 -1.54995 2.5
      vertex 3.23607 -2.35114 12
      vertex 2.67652 -2.97258 12
    endloop
  endfacet
  facet normal 0.854356 -0.493292 -0.163521
    outer loop
      vertex 3.65418 -1.62695 12
      vertex 1.95512 -1.42048 2.5
      vertex 2.04223 -1.26961 2.5
    endloop
  endfacet
  facet normal 0.854369 -0.493269 -0.163523
    outer loop
      vertex 1.95512 -1.42048 2.5
      vertex 3.65418 -1.62695 12
      vertex 3.23607 -2.35114 12
    endloop
  endfacet
  facet normal 0.981135 -0.103122 -0.163522
    outer loop
      vertex 4 0 12
      vertex 2.36386 -0.502453 2.5
      vertex 2.41667 0 2.5
    endloop
  endfacet
  facet normal 0.981135 -0.103122 -0.163522
    outer loop
      vertex 2.36386 -0.502453 2.5
      vertex 4 0 12
      vertex 3.91259 -0.831646 12
    endloop
  endfacet
  facet normal -0.205113 -0.964981 -0.163523
    outer loop
      vertex -0.418114 -3.97809 12
      vertex -0.576383 -2.33461 2.5
      vertex -0.25261 -2.40343 2.5
    endloop
  endfacet
  facet normal -0.938252 0.304866 -0.163523
    outer loop
      vertex -2.31002 0.66814 2.5
      vertex -3.65418 1.62695 12
      vertex -2.20773 0.982946 2.5
    endloop
  endfacet
  facet normal -0.205113 0.964981 -0.163523
    outer loop
      vertex -0.25261 2.40343 2.5
      vertex -0.576383 2.33461 2.5
      vertex -0.418114 3.97809 12
    endloop
  endfacet
  facet normal -0.57985 0.798144 -0.163523
    outer loop
      vertex -1.34928 1.99049 2.5
      vertex -2 3.4641 12
      vertex -1.20833 2.09289 2.5
    endloop
  endfacet
  facet normal -0.579873 0.798128 -0.163523
    outer loop
      vertex -2 3.4641 12
      vertex -1.34928 1.99049 2.5
      vertex -2.67652 2.97258 12
    endloop
  endfacet
  facet normal -0.401283 0.901239 -0.163523
    outer loop
      vertex -1.20833 2.09289 2.5
      vertex -2 3.4641 12
      vertex -0.905943 2.22753 2.5
    endloop
  endfacet
  facet normal -0.401266 0.901247 -0.163523
    outer loop
      vertex -0.905943 2.22753 2.5
      vertex -1.23607 3.80423 12
      vertex -0.746791 2.29839 2.5
    endloop
  endfacet
  facet normal -0.401268 0.901246 -0.163523
    outer loop
      vertex -1.23607 3.80423 12
      vertex -0.905943 2.22753 2.5
      vertex -2 3.4641 12
    endloop
  endfacet
  facet normal -0.733144 0.660122 -0.163522
    outer loop
      vertex -1.83855 1.54995 2.5
      vertex -2.67652 2.97258 12
      vertex -1.61707 1.79593 2.5
    endloop
  endfacet
  facet normal 0.401266 -0.901247 -0.163523
    outer loop
      vertex 0.905943 -2.22753 2.5
      vertex 1.23607 -3.80423 12
      vertex 0.746791 -2.29839 2.5
    endloop
  endfacet
  facet normal 0.401268 -0.901246 -0.163523
    outer loop
      vertex 1.23607 -3.80423 12
      vertex 0.905943 -2.22753 2.5
      vertex 2 -3.4641 12
    endloop
  endfacet
  facet normal 0.57985 -0.798144 -0.163523
    outer loop
      vertex 1.34928 -1.99049 2.5
      vertex 2 -3.4641 12
      vertex 1.20833 -2.09289 2.5
    endloop
  endfacet
  facet normal 0.579873 -0.798128 -0.163523
    outer loop
      vertex 2 -3.4641 12
      vertex 1.34928 -1.99049 2.5
      vertex 2.67652 -2.97258 12
    endloop
  endfacet
  facet normal 0.938247 -0.304883 -0.163522
    outer loop
      vertex 3.91259 -0.831646 12
      vertex 2.31002 -0.66814 2.5
      vertex 2.36386 -0.502453 2.5
    endloop
  endfacet
  facet normal 0.938255 -0.304858 -0.163523
    outer loop
      vertex 2.31002 -0.66814 2.5
      vertex 3.91259 -0.831646 12
      vertex 3.65418 -1.62695 12
    endloop
  endfacet
  facet normal 0.854375 -0.493257 -0.163523
    outer loop
      vertex 3.65418 -1.62695 12
      vertex 2.04223 -1.26961 2.5
      vertex 2.20773 -0.982946 2.5
    endloop
  endfacet
  facet normal 0.73314 0.660126 -0.163523
    outer loop
      vertex 3.23607 2.35114 12
      vertex 1.83855 1.54995 2.5
      vertex 2.67652 2.97258 12
    endloop
  endfacet
  facet normal 0.733157 0.660107 -0.163523
    outer loop
      vertex 1.83855 1.54995 2.5
      vertex 3.23607 2.35114 12
      vertex 1.95512 1.42048 2.5
    endloop
  endfacet
  facet normal 0.938252 0.304866 -0.163523
    outer loop
      vertex 2.31002 0.66814 2.5
      vertex 2.20773 0.982946 2.5
      vertex 3.65418 1.62695 12
    endloop
  endfacet
  facet normal 0.854369 0.493269 -0.163523
    outer loop
      vertex 3.65418 1.62695 12
      vertex 1.95512 1.42048 2.5
      vertex 3.23607 2.35114 12
    endloop
  endfacet
  facet normal 0.854356 0.493292 -0.163521
    outer loop
      vertex 1.95512 1.42048 2.5
      vertex 3.65418 1.62695 12
      vertex 2.04223 1.26961 2.5
    endloop
  endfacet
  facet normal 0.579873 0.798128 -0.163523
    outer loop
      vertex 1.34928 1.99049 2.5
      vertex 2 3.4641 12
      vertex 2.67652 2.97258 12
    endloop
  endfacet
  facet normal 0.57985 0.798144 -0.163523
    outer loop
      vertex 2 3.4641 12
      vertex 1.34928 1.99049 2.5
      vertex 1.20833 2.09289 2.5
    endloop
  endfacet
  facet normal 0.579872 0.798128 -0.163522
    outer loop
      vertex 1.61707 1.79593 2.5
      vertex 1.34928 1.99049 2.5
      vertex 2.67652 2.97258 12
    endloop
  endfacet
  facet normal 0.401268 0.901246 -0.163523
    outer loop
      vertex 0.905943 2.22753 2.5
      vertex 1.23607 3.80423 12
      vertex 2 3.4641 12
    endloop
  endfacet
  facet normal 0.401266 0.901247 -0.163523
    outer loop
      vertex 1.23607 3.80423 12
      vertex 0.905943 2.22753 2.5
      vertex 0.746791 2.29839 2.5
    endloop
  endfacet
  facet normal 0.205111 0.964982 -0.163523
    outer loop
      vertex 0.746791 2.29839 2.5
      vertex 0.418114 3.97809 12
      vertex 1.23607 3.80423 12
    endloop
  endfacet
  facet normal 0.205106 0.964983 -0.163523
    outer loop
      vertex 0.418114 3.97809 12
      vertex 0.746791 2.29839 2.5
      vertex 0.576383 2.33461 2.5
    endloop
  endfacet
  facet normal 0.733144 -0.660122 -0.163522
    outer loop
      vertex 2.67652 -2.97258 12
      vertex 1.61707 -1.79593 2.5
      vertex 1.83855 -1.54995 2.5
    endloop
  endfacet
  facet normal 0.579872 -0.798128 -0.163522
    outer loop
      vertex 2.67652 -2.97258 12
      vertex 1.34928 -1.99049 2.5
      vertex 1.61707 -1.79593 2.5
    endloop
  endfacet
  facet normal 0.938252 -0.304866 -0.163523
    outer loop
      vertex 3.65418 -1.62695 12
      vertex 2.20773 -0.982946 2.5
      vertex 2.31002 -0.66814 2.5
    endloop
  endfacet
  facet normal 0.854375 0.493257 -0.163523
    outer loop
      vertex 2.20773 0.982946 2.5
      vertex 2.04223 1.26961 2.5
      vertex 3.65418 1.62695 12
    endloop
  endfacet
  facet normal 0.938255 0.304858 -0.163523
    outer loop
      vertex 3.91259 0.831646 12
      vertex 2.31002 0.66814 2.5
      vertex 3.65418 1.62695 12
    endloop
  endfacet
  facet normal 0.938247 0.304883 -0.163522
    outer loop
      vertex 2.31002 0.66814 2.5
      vertex 3.91259 0.831646 12
      vertex 2.36386 0.502453 2.5
    endloop
  endfacet
  facet normal 0.981135 0.103122 -0.163522
    outer loop
      vertex 4 0 12
      vertex 2.36386 0.502453 2.5
      vertex 3.91259 0.831646 12
    endloop
  endfacet
  facet normal 0.981135 0.103122 -0.163522
    outer loop
      vertex 2.36386 0.502453 2.5
      vertex 4 0 12
      vertex 2.41667 0 2.5
    endloop
  endfacet
endsolid OpenSCAD_Model
